<svg width="318" height="296" viewBox="0 0 318 296" fill="none" xmlns="http://www.w3.org/2000/svg">
<g clip-path="url(#clip0)">
<path fill-rule="evenodd" clip-rule="evenodd" d="M85.5001 17.9564C89.6757 25.7394 89.1795 45.4815 83.783 46.8725C81.6309 47.4273 77.0464 46.0685 72.3803 43.2561L75.3088 63.9764H58.0151L63.9682 36.2267C60.6481 32.3295 58.4011 27.5534 58.7766 22.2017C59.8586 6.78111 81.3245 10.1734 85.5001 17.9564Z" fill="#EAC7A8"/>
<path fill-rule="evenodd" clip-rule="evenodd" d="M56.5737 0.566162C62.5431 0.566162 67.3822 5.40532 67.3822 11.3747L67.3803 11.2212C76.068 8.211 87.3428 11.7281 85.834 18.7827C84.8652 23.3127 79.6186 25.5753 74.457 27.9967C73.698 26.6775 72.249 25.7861 70.5864 25.7861C68.1363 25.7861 66.1501 27.7218 66.1501 30.1095C66.1501 30.9696 66.4078 31.771 66.852 32.4444C65.1158 33.9548 63.8907 35.7728 63.5944 38.1308C60.7958 38.1308 56.2725 29.9138 57.766 22.118C57.3745 22.1612 56.9767 22.1833 56.5737 22.1833C50.6043 22.1833 45.7651 17.3441 45.7651 11.3747C45.7651 5.40532 50.6043 0.566162 56.5737 0.566162Z" fill="#191847"/>
<path fill-rule="evenodd" clip-rule="evenodd" d="M52.25 123.784L79.3657 212.431L92.5012 287.82H102.8L88.9205 123.784H52.25Z" fill="#EAC7A8"/>
<path fill-rule="evenodd" clip-rule="evenodd" d="M52.25 123.784L79.3657 212.431L92.5012 287.82H102.8L88.9205 123.784H52.25Z" fill="black" fill-opacity="0.1"/>
<path fill-rule="evenodd" clip-rule="evenodd" d="M42.5498 123.784C44.3916 172.456 42.2241 197.562 41.8119 201.984C41.3997 206.406 35.7552 235.079 22.3926 289.305L33.3671 285.536C54.4855 235.803 61.6819 209.956 64.104 203.425C66.5261 196.895 72.9591 170.348 83.403 123.784H42.5498Z" fill="#EAC7A8"/>
<path fill-rule="evenodd" clip-rule="evenodd" d="M22.4748 285.481C21.6687 287.633 21.2656 289.243 21.2656 290.312C21.2656 291.611 21.4821 293.507 21.915 296C23.4224 296 36.9696 296 62.5565 296C63.6126 292.509 63.003 290.624 60.7275 290.345C58.4521 290.067 56.5618 289.816 55.0568 289.591L36.167 281.17C35.8035 281.008 35.3775 281.171 35.2155 281.535C35.2127 281.541 35.21 281.547 35.2074 281.554L33.9932 284.499C31.8867 285.482 30.175 285.973 28.858 285.973C27.788 285.973 26.3103 285.541 24.425 284.677L24.425 284.677C23.7014 284.345 22.846 284.663 22.5143 285.386C22.5 285.417 22.4869 285.449 22.4748 285.481Z" fill="#E4E4E4"/>
<path fill-rule="evenodd" clip-rule="evenodd" d="M90.2082 285.481C89.4021 287.633 88.999 289.243 88.999 290.312C88.999 291.611 89.2155 293.507 89.6484 296C91.1558 296 104.703 296 130.29 296C131.346 292.509 130.736 290.624 128.461 290.345C126.185 290.067 124.295 289.816 122.79 289.591L103.9 281.17C103.537 281.008 103.111 281.171 102.949 281.535C102.946 281.541 102.943 281.547 102.941 281.554L101.727 284.499C99.6201 285.482 97.9084 285.973 96.5914 285.973C95.5214 285.973 94.0437 285.541 92.1583 284.677L92.1584 284.677C91.4348 284.345 90.5794 284.663 90.2477 285.386C90.2334 285.417 90.2203 285.449 90.2082 285.481Z" fill="#E4E4E4"/>
<path fill-rule="evenodd" clip-rule="evenodd" d="M48.6475 123.784L60.1766 168.949H95.3911L90.1405 123.784H48.6475Z" fill="#69A1AC"/>
<path fill-rule="evenodd" clip-rule="evenodd" d="M42.1622 123.784C38.3687 135.155 37.6481 150.21 40.0005 168.949H75.9355L85.8169 123.784H42.1622Z" fill="#89C5CC"/>
<path fill-rule="evenodd" clip-rule="evenodd" d="M25.0903 115.151L40.1484 115.21C30.8507 145.225 25.8314 161.15 25.0903 162.987C23.423 167.119 26.9513 173.412 28.4602 176.794C23.5459 178.993 24.0695 170.849 17.8702 173.733C12.2118 176.366 7.90744 181.136 1.36995 177.102C0.566201 176.606 -0.314573 174.739 1.81349 173.279C7.11527 169.644 14.7555 163.281 15.7878 161.187C17.1955 158.331 20.2964 142.986 25.0903 115.151ZM113.341 114.569L136.326 131.447C142.56 133.129 147.768 135.222 151.951 137.726C152.939 138.626 154.133 140.449 150.035 140.134C145.938 139.819 141.614 139.672 141.048 141.069C140.483 142.467 142.963 144.138 141.82 146.024C141.058 147.281 137.458 144.129 131.021 136.567L108.26 127.129L113.341 114.569Z" fill="#EAC7A8"/>
<path fill-rule="evenodd" clip-rule="evenodd" d="M67.8828 51.9659L74.1137 50.8971C97.232 70.868 106.728 109.235 135.065 129.559L128.244 138.013C79.0842 131.926 66.8994 85.1285 67.8828 51.9659Z" fill="#E87613"/>
<path fill-rule="evenodd" clip-rule="evenodd" d="M40.7212 130.269C65.7046 130.269 84.0819 130.269 95.8531 130.269C98.3723 130.269 97.8976 126.631 97.5334 124.795C93.3305 103.61 76.9236 80.7739 76.9236 50.6175L61.021 48.1238C47.8674 69.2786 43.3187 95.3244 40.7212 130.269Z" fill="#DDE3E9"/>
<path fill-rule="evenodd" clip-rule="evenodd" d="M59.8236 48.1238C60.3608 48.1238 60.8528 48.1574 61.2998 48.2246L66.2811 48.5091C80.5645 96.9174 84.5038 129.215 78.0989 145.401L34.7054 145.402C32.1345 151.397 29.6745 156.44 27.3252 160.533H15.5013C14.3886 124.552 22.943 94.0141 41.1646 68.9177C38.855 68.2544 37.0258 66.7059 35.6773 64.2727C29.8649 53.7847 31.964 48.0103 38.1757 46.1122C44.3873 44.2141 49.9268 48.1238 59.8236 48.1238Z" fill="#FF9B21"/>
<path fill-rule="evenodd" clip-rule="evenodd" d="M50.8092 145.401L34.7056 145.401C37.7046 138.408 40.8543 130.121 44.1547 120.54C45.5195 131.957 47.7376 140.245 50.8092 145.401Z" fill="black" fill-opacity="0.1"/>
</g>
<g clip-path="url(#clip1)">
<path fill-rule="evenodd" clip-rule="evenodd" d="M249.75 9.4662C254.053 17.4868 253.542 37.8318 247.98 39.2653C245.763 39.8369 241.038 38.4366 236.23 35.5384L239.248 56.8914H221.426L227.561 28.2944C224.139 24.2781 221.824 19.3562 222.211 13.8411C223.326 -2.05032 245.447 1.44559 249.75 9.4662Z" fill="#B28B67"/>
<path fill-rule="evenodd" clip-rule="evenodd" d="M240.088 1.65943C245.089 2.08833 249.554 3.61309 250.819 4.51861C250.819 9.25268 249.902 10.6573 242.067 10.5335C240.142 11.5501 238.662 13.3006 237.121 15.5955C237.802 25.0986 239.607 29.8505 242.534 29.8505C246.925 29.8505 250.65 27.0632 252.576 27.0632C253.981 27.0632 253.667 28.8206 252.736 30.1236C251.968 31.1987 248.228 32.2349 248.228 33.9015C248.228 35.5682 251.183 34.2788 251.183 35.2673C251.183 36.9023 251.703 39.9765 248.865 39.9765C245.993 39.9765 237.758 38.9299 236.347 34.6674C235.437 31.9167 234.848 26.2168 234.581 17.5677C234.407 17.5459 234.229 17.5352 234.05 17.5352C231.589 17.5352 229.594 19.53 229.594 21.9906C229.594 23.2398 230.108 24.3689 230.936 25.1779C229.905 26.6331 228.75 28.1532 227.426 29.7217C222.452 26.7377 218.762 18.0023 223.624 9.61067C224.968 5.49977 228.011 3.30398 231.604 2.2844C234.515 1.06674 237.537 0.92945 240.088 1.65943Z" fill="#191847"/>
<path fill-rule="evenodd" clip-rule="evenodd" d="M207.052 118.525C208.391 136.8 294.648 190.602 295.151 192.111C295.375 192.782 286.425 213.991 268.303 255.736L275.843 258.666C303.64 214.455 316.825 189.993 315.397 185.282C313.353 178.538 291.044 156.35 248.471 118.719L207.052 118.525Z" fill="#B28B67"/>
<path fill-rule="evenodd" clip-rule="evenodd" d="M207.052 118.525C208.391 136.8 294.648 190.602 295.151 192.111C295.375 192.782 286.425 213.991 268.303 255.736L275.843 258.666C303.64 214.455 316.825 189.993 315.397 185.282C313.353 178.538 291.044 156.35 248.471 118.719L207.052 118.525Z" fill="black" fill-opacity="0.1"/>
<path fill-rule="evenodd" clip-rule="evenodd" d="M270.287 246.308L282.598 250.79C308.556 221.501 318.731 197.335 316.876 185.022C315.639 176.813 293.407 154.662 250.181 118.57L206.17 118.57C207.671 160.891 287.621 192.272 288.69 194.076C289.759 195.879 279.236 213.542 270.287 246.308Z" fill="#2F3676"/>
<path fill-rule="evenodd" clip-rule="evenodd" d="M265.529 254.297C263.99 256.097 263.032 257.514 262.655 258.548C262.197 259.807 261.739 261.719 261.279 264.286C262.739 264.817 275.858 269.592 300.636 278.61C302.889 275.602 302.963 273.561 300.858 272.49C298.752 271.418 297.01 270.508 295.632 269.761L280.308 254.948C280.013 254.663 279.543 254.671 279.258 254.966C279.253 254.971 279.248 254.976 279.243 254.981L277.029 257.405C274.643 257.615 272.812 257.487 271.537 257.023C270.501 256.646 269.222 255.707 267.701 254.205L267.701 254.205C267.117 253.629 266.177 253.635 265.601 254.219C265.576 254.244 265.552 254.27 265.529 254.297Z" fill="#E4E4E4"/>
<path fill-rule="evenodd" clip-rule="evenodd" d="M216.97 118.525L178.545 210.773L140.779 288.76H149.689L247.173 118.525H216.97Z" fill="#B28B67"/>
<path fill-rule="evenodd" clip-rule="evenodd" d="M140.246 285.16C139.415 287.377 139 289.037 139 290.138C139 291.477 139.223 293.431 139.669 296C141.223 296 155.183 296 181.552 296C182.64 292.402 182.012 290.459 179.667 290.172C177.322 289.885 175.374 289.626 173.823 289.395L154.356 280.717C153.982 280.55 153.543 280.718 153.376 281.093C153.373 281.099 153.37 281.106 153.368 281.112L152.116 284.147C149.945 285.16 148.181 285.667 146.824 285.667C145.722 285.667 144.199 285.221 142.256 284.331L142.256 284.331C141.51 283.989 140.629 284.316 140.287 285.062C140.272 285.094 140.259 285.127 140.246 285.16Z" fill="#E4E4E4"/>
<path fill-rule="evenodd" clip-rule="evenodd" d="M144.189 272.559L163.988 276.272C179.296 253.766 243.362 161.484 250.386 118.525H206.31C182.852 149.58 158.781 249.681 144.189 272.559Z" fill="#5C63AB"/>
<path fill-rule="evenodd" clip-rule="evenodd" d="M176.624 98.1311L189.777 100.041C175.659 130.672 168.09 146.871 167.07 148.639C164.776 152.617 167.474 159.545 168.529 163.213C163.199 164.752 164.901 156.516 158.161 158.57C152.009 160.445 146.932 164.696 140.839 159.642C140.09 159.02 139.459 156.988 141.84 155.804C147.772 152.855 156.481 147.458 157.835 145.469C159.681 142.756 165.944 126.977 176.624 98.1311ZM278.128 106.354L300.544 125.358C306.831 127.536 312.035 130.061 316.155 132.936C317.106 133.932 318.202 135.893 314.013 135.274C309.823 134.656 305.388 134.194 304.707 135.59C304.025 136.986 306.454 138.882 305.143 140.739C304.27 141.976 300.796 138.477 294.722 130.241L272.001 118.901L278.128 106.354Z" fill="#B28B67"/>
<path fill-rule="evenodd" clip-rule="evenodd" d="M231.595 44.5145L239.745 41.8194C250.8 69.4359 267.287 96.1562 294.834 118.726L288.022 130.478C263.812 116.217 240.895 105.139 231.595 83.7392C228.474 76.557 231.341 53.1023 231.595 44.5145Z" fill="#C5CFD6"/>
<path fill-rule="evenodd" clip-rule="evenodd" d="M203.604 122.238C226.949 124.713 245.325 124.713 258.73 122.238C260.391 121.932 260.653 119.151 259.882 117.264C247.888 87.8752 239.664 62.2321 239.664 41.8196C237.463 42.9291 233.611 43.0954 228.109 42.3184C213.321 63.3542 206.524 87.4904 203.604 122.238Z" fill="#323337"/>
<path fill-rule="evenodd" clip-rule="evenodd" d="M224.454 40.1699L224.433 40.5546L230.595 40.5551C232.016 48.9099 236.466 161 250.111 199.514L250.527 200.658H174.93C176.568 166.412 189.497 125.274 202.593 90.8488C191.013 101.446 180.919 119.402 172.313 144.718L158.153 141.083C168.681 95.715 190.328 62.3693 223.092 41.0457L223.305 40.5551L223.853 40.5546L224.454 40.1699Z" fill="#DDE3E9"/>
</g>
<defs>
<clipPath id="clip0">
<rect width="153.78" height="296" fill="white"/>
</clipPath>
<clipPath id="clip1">
<rect width="178.851" height="296" fill="white" transform="translate(139)"/>
</clipPath>
</defs>
</svg>
