<svg width="216" height="160" viewBox="0 0 216 160" fill="none" xmlns="http://www.w3.org/2000/svg">
<g clip-path="url(#clip0)">
<path opacity="0.16" d="M108.426 230C166.652 230 213.853 182.937 213.853 124.883C213.853 66.8293 166.652 19.7671 108.426 19.7671C50.201 19.7671 3 66.8293 3 124.883C3 182.937 50.201 230 108.426 230Z" fill="#FA3A69"/>
<mask id="mask0" mask-type="alpha" maskUnits="userSpaceOnUse" x="3" y="-10" width="211" height="240">
<path d="M108.426 230C166.652 230 213.853 182.856 213.853 124.701V-10H3V124.701C3 182.856 50.201 230 108.426 230Z" fill="white"/>
</mask>
<g mask="url(#mask0)">
<path fill-rule="evenodd" clip-rule="evenodd" d="M98.6739 23.7937C107.91 29.9306 118.459 52.0594 112.975 56.7918C110.788 58.679 104.697 59.8894 97.6923 59.5404L112.771 80.7242L92.6834 90.9592L83.96 56.7443C77.9073 54.3988 72.6057 50.4462 70.026 44.3048C62.5926 26.6091 89.4378 17.6568 98.6739 23.7937Z" fill="#EAC7A8"/>
<path fill-rule="evenodd" clip-rule="evenodd" d="M69.2875 39.1791C64.7375 18.9268 96.3216 16.8471 99.7676 11.2829C104.173 17.2333 103.33 24.2705 90.4532 29.5548C88.4651 32.3953 87.9113 36.1049 87.3943 40.8643C86.7175 40.9409 86.0383 41.1397 85.3901 41.47C82.6166 42.8831 81.4591 46.1696 82.8047 48.8105C83.4877 50.1508 84.6841 51.0673 86.0595 51.4601C85.6945 53.6131 85.2234 55.9086 84.5888 58.3529C77.4063 58.0094 68.5506 50.8616 69.2872 39.222L69.2875 39.1791Z" fill="#191847"/>
<path fill-rule="evenodd" clip-rule="evenodd" d="M106.14 156.414L151.066 270.638L182.555 354.827H200.511L157.225 156.414L106.14 156.414Z" fill="#1F28CF"/>
<path fill-rule="evenodd" clip-rule="evenodd" d="M95.0357 156.414C94.5473 195.607 94.9004 248.373 93.7626 250.816C93.004 252.445 69.41 271.002 22.9805 306.487L32.2354 321.609C87.3579 287.453 116.328 268.099 119.146 263.549C123.374 256.723 144.611 193.909 155.661 156.414H95.0357Z" fill="#2B44FF"/>
<path fill-rule="evenodd" clip-rule="evenodd" d="M46.9647 152.753L63.5523 151C55.3159 191.26 50.8352 212.583 50.1102 214.969C48.479 220.338 53.7957 227.654 56.1549 231.641C50.1095 235.068 49.7728 224.879 42.1603 229.339C35.212 233.41 30.2697 239.944 21.3645 235.86C20.2696 235.358 18.9057 233.164 21.4607 231.05C27.8261 225.784 36.8597 216.799 37.9271 214.052C39.3828 210.306 42.3954 189.873 46.9647 152.753ZM173.072 131.568L205.953 147.074C214.254 147.72 221.335 149.106 227.197 151.229C228.648 152.111 230.558 154.079 225.271 154.626C219.984 155.173 214.445 155.978 214.023 157.824C213.601 159.671 217.116 161.16 216.063 163.738C215.36 165.457 210.102 162.403 200.288 154.576L169.279 148.164L173.072 131.568Z" fill="#EAC7A8"/>
<path fill-rule="evenodd" clip-rule="evenodd" d="M98.2576 73.0862L107.4 67.445C128.959 96.5169 156.875 122.886 197.054 141.02L192.193 156.891C158.514 147.5 127.341 141.454 109.742 119.149C103.836 111.663 100.462 83.2485 98.2576 73.0862Z" fill="#C5CFD6"/>
<path fill-rule="evenodd" clip-rule="evenodd" d="M86.9022 172.865C116.077 168.678 138.47 163.095 154.082 156.115C156.017 155.25 155.522 151.905 154.03 149.923C130.809 119.055 113.277 91.4409 107.301 67.4696C104.944 69.4413 100.298 70.8068 93.3654 71.5663C81.5036 100.763 80.2869 131.172 86.9022 172.865Z" fill="#323337"/>
<path fill-rule="evenodd" clip-rule="evenodd" d="M88.2833 70.1537L88.3697 70.612L95.8799 68.7401C100.057 78.1199 138.3 208.399 166.206 249.481L167.048 250.699L74.9194 273.669C66.8895 232.954 70.5999 180.716 76.4809 136.31C65.4708 152.274 58.4277 176.427 55.3517 208.771L37.0307 208.805C36.5779 152.329 53.1941 106.593 86.8793 71.5961L86.9961 70.9551L87.6639 70.788L88.2833 70.1537Z" fill="#DDE3E9"/>
</g>
</g>
<defs>
<clipPath id="clip0">
<rect width="216" height="160" fill="white"/>
</clipPath>
</defs>
</svg>
