<svg width="181" height="280" viewBox="0 0 181 280" fill="none" xmlns="http://www.w3.org/2000/svg">
<path fill-rule="evenodd" clip-rule="evenodd" d="M108.03 8.95504C112.1 16.5421 111.617 35.7873 106.356 37.1434C104.258 37.6841 99.7889 36.3595 95.2403 33.618L98.0951 53.8167H81.2367L87.0399 26.7655C83.8034 22.9663 81.613 18.3105 81.979 13.0934C83.0338 -1.93897 103.959 1.36797 108.03 8.95504Z" fill="#EAC7A8"/>
<path fill-rule="evenodd" clip-rule="evenodd" d="M83.227 9.24302C87.0708 -6.55026 108.821 3.25512 113.006 0.590331C113.921 6.32448 110.97 10.9481 100.597 10.0548C98.3077 11.3335 96.6793 13.7318 94.7191 16.8778C94.2421 16.6901 93.7222 16.587 93.1781 16.587C90.8505 16.587 88.9635 18.4739 88.9635 20.8016C88.9635 21.983 89.4496 23.0508 90.2326 23.816C89.2585 25.1924 88.1654 26.6307 86.9127 28.1148C82.2438 25.3136 78.77 17.1548 83.2122 9.27294L83.227 9.24302Z" fill="#191847"/>
<path fill-rule="evenodd" clip-rule="evenodd" d="M75.6172 112.117L109.391 201.486L133.065 267.355H146.563L114.022 112.117L75.6172 112.117Z" fill="#1F28CF"/>
<path fill-rule="evenodd" clip-rule="evenodd" d="M67.2699 112.117C66.9028 142.781 67.1682 184.066 66.3128 185.977C65.7425 187.251 48.0051 201.77 13.1006 229.534L20.0582 241.365C61.4979 214.641 83.2771 199.499 85.3957 195.939C88.5736 190.598 104.539 141.453 112.846 112.117H67.2699Z" fill="#2B44FF"/>
<path fill-rule="evenodd" clip-rule="evenodd" d="M0.860157 237.495L12.6117 228.552L22.0935 239.852C22.8228 248.371 25.6433 257.924 30.555 268.513L28.4026 270.319L11.245 249.872L6.4515 241.973L5.37531 242.876L0.860157 237.495Z" fill="#191847"/>
<path fill-rule="evenodd" clip-rule="evenodd" d="M131.812 279.999L132.514 265.248H147.265C154.26 270.165 163.392 274.146 174.66 277.189V279.999H147.968L138.836 278.594V279.999H131.812Z" fill="#191847"/>
<path fill-rule="evenodd" clip-rule="evenodd" d="M37.3404 95.9602L51.7344 98.8162C37.2587 125.793 29.4957 140.091 28.4453 141.71C26.0818 145.352 28.287 152.026 29.1015 155.541C23.9914 156.731 26.0067 149.04 19.5399 150.645C13.6373 152.111 8.63266 155.873 3.12876 150.8C2.45209 150.176 1.95673 148.226 4.26385 147.226C10.0117 144.735 18.5037 140.07 19.8807 138.259C21.7585 135.79 27.5784 121.69 37.3404 95.9602ZM179.71 74.364L179.449 74.7464C177.279 77.9413 175.249 81.293 176.119 82.4069C177.023 83.5654 179.643 82.2868 180.678 84.1707C181.368 85.4267 176.952 86.9291 167.43 88.678L148.368 103.293L140.241 92.8815L165.693 81.7037C170.152 77.2607 174.458 73.8838 178.61 71.5731C179.851 71.1778 181.973 71.0583 179.71 74.364Z" fill="#EAC7A8"/>
<path fill-rule="evenodd" clip-rule="evenodd" d="M90.8564 42.1062L96.9305 41.0644C110.16 53.8979 115.559 84.7302 124.376 88.8113C132.712 92.6699 144.528 88.936 158.574 83.8943L162.876 93.5051C150.114 107.312 122.925 118.977 111.905 112.318C94.2853 101.671 90.2178 63.644 90.8564 42.1062Z" fill="#DB2721"/>
<path fill-rule="evenodd" clip-rule="evenodd" d="M64.3782 118.439C88.7328 118.439 106.647 118.439 118.122 118.439C120.578 118.439 120.115 114.893 119.76 113.103C115.663 92.4514 99.6693 70.1897 99.6693 40.7923L84.167 38.3613C71.3445 58.9837 66.9103 84.3739 64.3782 118.439Z" fill="#DDE3E9"/>
<path fill-rule="evenodd" clip-rule="evenodd" d="M89.305 38.3613C103.222 85.8015 107.059 117.411 100.815 133.19H52.4368C53.2022 121.644 55.6566 109.433 59.0183 97.5274C48.0621 117.292 38.8526 131.52 31.3901 140.214L20.1249 138.008C27.3814 93.0041 48.3954 59.7886 83.1669 38.3613L89.305 38.3613Z" fill="#FF4133"/>
</svg>
