<?xml version="1.0" encoding="UTF-8" standalone="no"?>
<svg
   xmlns:dc="http://purl.org/dc/elements/1.1/"
   xmlns:cc="http://creativecommons.org/ns#"
   xmlns:rdf="http://www.w3.org/1999/02/22-rdf-syntax-ns#"
   xmlns:svg="http://www.w3.org/2000/svg"
   xmlns="http://www.w3.org/2000/svg"
   xmlns:sodipodi="http://sodipodi.sourceforge.net/DTD/sodipodi-0.dtd"
   xmlns:inkscape="http://www.inkscape.org/namespaces/inkscape"
   width="124"
   height="124"
   viewBox="0 0 124 121"
   version="1.1"
   id="svg234"
   sodipodi:docname="build.svg"
   style="fill:none"
   inkscape:version="0.92.4 (5da689c313, 2019-01-14)">
  <metadata
     id="metadata240">
    <rdf:RDF>
      <cc:Work
         rdf:about="">
        <dc:format>image/svg+xml</dc:format>
        <dc:type
           rdf:resource="http://purl.org/dc/dcmitype/StillImage" />
      </cc:Work>
    </rdf:RDF>
  </metadata>
  <defs
     id="defs238" />
  <sodipodi:namedview
     pagecolor="#ffffff"
     bordercolor="#666666"
     borderopacity="1"
     objecttolerance="10"
     gridtolerance="10"
     guidetolerance="10"
     inkscape:pageopacity="0"
     inkscape:pageshadow="2"
     inkscape:window-width="3440"
     inkscape:window-height="1377"
     id="namedview236"
     showgrid="false"
     inkscape:zoom="1.9504132"
     inkscape:cx="62"
     inkscape:cy="60.5"
     inkscape:window-x="-8"
     inkscape:window-y="-8"
     inkscape:window-maximized="1"
     inkscape:current-layer="svg234" />
  <g
     id="g28"
     style="opacity:0.5">
    <path
       d="m -3.13791,14.2863 c -3.06182,0.0244 -6.12237,0.1754 -9.18269,0.268 -1.4727,0.0445 -2.9443,0.1011 -4.4154,0.1827 -0.5013,0.0278 -1.5764,-0.1327 -1.994,0.1344 -0.9271,0.593 0.5681,0.7316 0.9667,0.7172 6.0564,-0.2197 12.1149,-0.5089 18.176474,-0.5226 2.973456,-0.0066 5.945436,0.0781 8.919206,0.0591 1.13672,-0.0073 2.39552,-0.497 2.68262,0.8261 0.324,1.4931 -0.0483,3.1554 -0.1496,4.6557 -0.0677,1.0016 -0.0436,1.9823 0.0016,2.983 0.0289,0.6411 -0.0464,1.3635 0.0669,1.9926 0.1091,0.6058 0.5446,0.9691 0.9438,0.2905 0.2385,-0.4055 0.1198,-1.4067 0.1357,-1.8765 0.0213,-0.6327 0.0012,-1.2652 0.0012,-1.898 -2e-4,-1.5445 0.2179,-3.0829 0.1891,-4.6271 -0.0185,-0.9958 -0.0714,-2.801 -1.3274,-3.0402 -1.383,-0.2636 -3.08294,0.0014 -4.49824,-0.0147 -3.5069,-0.0401 -7.00791,-0.1576 -10.51597,-0.1302 z"
       id="path2"
       inkscape:connector-curvature="0"
       style="clip-rule:evenodd;opacity:0.5;fill:#89c5cc;fill-rule:evenodd" />
    <path
       d="m -11.5743,23.9472 c -1.1545,0 -2.3091,0.0069 -3.4635,0.0261 -0.9901,0.0163 -2.5468,-0.19 -3.4683,0.1642 -0.6309,0.2425 -0.7985,0.9468 0,1.1344 0.8708,0.2047 2.1832,-0.1299 3.0943,-0.146 4.5686,-0.0806 9.18124,-0.1858 13.74347,0.1032 4.27493,0.2706 8.63223,0.5331 12.91343,0.2474 0.3602,-0.024 2.1974,-0.0971 1.3591,-0.7858 C 12.1151,24.2888 10.1329,24.5531 9.49732,24.5339 7.2555,24.4663 5.01147,24.4512 2.77039,24.3663 0.558548,24.2824 -1.64351,24.0337 -3.85608,23.9721 -6.42664,23.9006 -9.00288,23.9472 -11.5743,23.9472 Z"
       id="path4"
       inkscape:connector-curvature="0"
       style="clip-rule:evenodd;opacity:0.5;fill:#89c5cc;fill-rule:evenodd" />
    <path
       d="m 3.07971,18.7006 c -0.03061,0.0131 -0.1398,0.0593 0,0 z m -4.47986,-0.6547 c -0.76992,0.1738 -1.42003,0.8928 -2.25654,0.7966 -0.64107,-0.0737 -1.0751,-0.6923 -1.70796,-0.7822 -0.80958,-0.1151 -3.0129,1.7317 -1.85449,2.0485 0.67588,0.185 1.0508,-1.0501 1.64789,-1.1158 0.47233,-0.0518 1.11465,0.5274 1.60412,0.6098 0.9131,0.1539 1.54017,-0.3491 2.34176,-0.6734 0.87102,-0.3525 1.366595,-0.0351 2.124108,0.3567 0.597932,0.3092 1.161042,0.5105 1.845232,0.3829 0.64211,-0.1196 1.44875,-0.7799 2.09507,-0.7122 0.63307,0.0664 1.08489,0.727 1.73605,0.7883 0.26846,0.0252 0.66809,0.1167 0.62296,-0.2975 -0.03608,-0.3317 -0.40616,-0.2755 -0.63769,-0.3961 -0.59541,-0.31 -1.15231,-0.8592 -1.8709,-0.8123 -0.5405,0.0353 -1.0326,0.415 -1.5307,0.5967 -1.63137,0.595 -2.548468,-1.1512 -4.15891,-0.79 z"
       id="path6"
       inkscape:connector-curvature="0"
       style="clip-rule:evenodd;opacity:0.5;fill:#89c5cc;fill-rule:evenodd" />
    <path
       d="M -0.0372391,28.5524 C -3.18406,28.5813 -6.3415,28.628 -9.47948,28.8803 c -0.74392,0.0598 -8.34032,0.777 -8.32592,0.8287 0.0266,0.0955 1.0037,0.2415 0.9976,0.2641 -0.0659,-0.1633 -0.2164,-0.2309 -0.4515,-0.2027 7.2045,0 14.3862,-0.6451 21.60019,-0.529 1.81262,0.0291 3.63208,0.0169 5.44344,0.074 0.45227,0.0143 1.57267,0.3384 1.92777,0.1343 0.9321,-0.536 -0.7612,-0.5979 -1.0416,-0.6203 -3.55014,-0.284 -7.14761,-0.3125 -10.7077391,-0.277 z"
       id="path8"
       inkscape:connector-curvature="0"
       style="clip-rule:evenodd;opacity:0.5;fill:#69a1ac;fill-rule:evenodd" />
    <path
       d="m -6.90216,38.7225 c -2.23309,0.0383 -4.47104,0.0909 -6.70034,0.2304 -0.9137,0.0573 -1.8267,0.1424 -2.7371,0.2391 -0.1857,0.0196 -2.2419,0.1031 -1.3231,0.8619 0.4147,0.3426 2.1205,-0.1311 2.6839,-0.1804 0.9476,-0.0831 1.895,-0.1371 2.8454,-0.1773 2.20193,-0.0935 4.41061,-0.176 6.61477,-0.1378 4.02541,0.0698 8.02494,0.101 12.0515,0.0112 C 7.10493,39.5569 11.5868,39.6767 11.739,39.0815 11.8617,38.6018 10.2589,38.8218 9.96666,38.8306 8.89462,38.8626 7.82247,38.8551 6.75,38.8497 2.20692,38.8264 -2.36256,38.6457 -6.90216,38.7225 Z"
       id="path10"
       inkscape:connector-curvature="0"
       style="clip-rule:evenodd;opacity:0.5;fill:#69a1ac;fill-rule:evenodd" />
    <path
       d="m 10.9801,29.2851 c 0.0709,1.9883 0.4095,3.9743 0.5178,5.9685 0.0494,0.9116 0.1077,1.8224 0.1523,2.7344 0.0144,0.2942 -0.1042,1.003 0.2437,1.1722 0.4772,0.2321 0.5414,-0.2356 0.6308,-0.5519 0.258,-0.9138 0.0835,-2.1007 0.06,-3.0392 -0.0226,-0.9089 -0.0242,-1.8194 -0.0912,-2.7266 -0.0687,-0.9269 -0.2553,-1.8362 -0.3419,-2.7598 -0.0366,-0.3906 0.0915,-1.0406 -0.3232,-1.283 -0.3584,-0.2095 -0.8638,0.0545 -0.8483,0.4854 z"
       id="path12"
       inkscape:connector-curvature="0"
       style="clip-rule:evenodd;opacity:0.5;fill:#69a1ac;fill-rule:evenodd" />
    <path
       d="m 3.14192,33.6792 c -0.05807,0.0243 -0.05807,0.0243 0,0 z m -7.9533,-0.9799 c -0.61045,0.1144 -2.61379,0.7903 -2.64083,1.5146 -0.04944,1.3164 1.91256,-0.032 2.3386,-0.2052 1.15736,-0.4703 1.7655,0.4891 2.92812,0.5398 1.00977,0.044 1.938224,-0.8202 2.889401,-0.718 0.996619,0.107 1.475999,1.1673 2.626519,0.6043 0.60866,-0.2977 0.5933,-0.7568 -0.08994,-0.8001 -0.413,-0.0261 -0.69671,0.1446 -1.12728,-0.0332 -0.67335,-0.2776 -0.94455,-0.7299 -1.750344,-0.6581 -0.608029,0.0542 -1.15757,0.3969 -1.751086,0.5296 -1.35902,0.3036 -2.11285,-1.0192 -3.42316,-0.7737 z"
       id="path14"
       inkscape:connector-curvature="0"
       style="clip-rule:evenodd;opacity:0.5;fill:#69a1ac;fill-rule:evenodd" />
    <path
       d="m 7.83061,34.2507 c -0.04198,0.0177 -0.04198,0.0177 0,0 z m 0.154,-0.5481 c 0.00673,0.0029 0.05281,0.0668 0,0 z M 7.28485,33.2842 c -0.0263,0.0202 -0.0263,0.0202 0,0 z M 7.30011,33.279 c 0.1357,0.0812 1.22668,0.8272 0.43424,1.0029 C 7.33208,34.3711 6.99925,33.5616 7.30011,33.279 Z M 6.93887,32.4526 c -1.74761,0.7968 0.13296,3.6483 1.5045,2.4897 0.5771,-0.4875 0.65305,-1.4729 0.09162,-1.9808 C 8.19858,32.6572 7.39552,32.244 6.93887,32.4526 Z"
       id="path16"
       inkscape:connector-curvature="0"
       style="clip-rule:evenodd;opacity:0.5;fill:#69a1ac;fill-rule:evenodd" />
    <path
       d="m -9.46638,43.6892 c -2.18072,6e-4 -4.38052,-0.0452 -6.55832,0.0841 -0.3665,0.0218 -1.7626,-0.048 -1.9515,0.3352 -0.3454,0.7007 1.0911,0.3529 1.2998,0.3318 4.3362,-0.434 8.86569,-0.1843 13.21615,-0.0606 3.5580245,0.1012 7.09701,0.164 10.65082,0.3474 0.93414,0.0482 1.86743,0.1014 2.80094,0.1577 0.30419,0.0184 1.06999,0.2201 1.13409,-0.2659 C 11.185,44.1692 10.2298,44.2707 9.99119,44.2581 8.09368,44.1582 6.19743,44.0536 4.30044,43.9468 -0.26557,43.6894 -4.89312,43.6884 -9.46638,43.6892 Z"
       id="path18"
       inkscape:connector-curvature="0"
       style="clip-rule:evenodd;opacity:0.5;fill:#89c5cc;fill-rule:evenodd" />
    <path
       d="m 11.4926,52.4523 c -2.12224,0.2175 -4.27854,0.1147 -6.40885,0.2753 -1.83598,0.1385 -3.67027,0.1951 -5.510983,0.2341 -4.168157,0.088 -8.343367,0.1738 -12.499467,0.5211 -0.9471,0.0791 -1.8932,0.1631 -2.8429,0.2055 -0.4749,0.0212 -2.468,-0.1949 -2.6164,0.3058 -0.2528,0.8527 1.8786,0.5152 2.3383,0.5019 1.0109,-0.0292 2.0171,-0.1023 3.0252,-0.1791 4.2377,-0.3228 8.49159,-0.4194 12.738334,-0.5536 2.309676,-0.0729 4.603246,-0.2419 6.907766,-0.3956 1.14863,-0.0766 2.30041,-0.0791 3.4489,-0.1534 0.3006,-0.0194 1.3643,0.019 1.5805,-0.2229 0.1485,-0.1661 0.1861,-0.5715 -0.1604,-0.5391 z"
       id="path20"
       inkscape:connector-curvature="0"
       style="clip-rule:evenodd;opacity:0.5;fill:#89c5cc;fill-rule:evenodd" />
    <path
       d="m 10.773,44.6134 c 0.0728,2.0352 0.1878,4.0686 0.2565,6.1038 0.0207,0.612 -0.1642,1.7089 0.1766,2.2486 0.548,0.8679 0.9757,-0.0506 1.076,-0.5914 0.3168,-1.7068 -0.0237,-3.5922 -0.1122,-5.3095 -0.0337,-0.6551 0.1698,-2.1133 -0.1468,-2.6997 -0.3016,-0.5585 -1.2771,-0.5025 -1.2501,0.2482 z"
       id="path22"
       inkscape:connector-curvature="0"
       style="clip-rule:evenodd;opacity:0.5;fill:#89c5cc;fill-rule:evenodd" />
    <path
       d="m 7.21013,47.5117 c 0.81305,0.2202 0.93182,1.9879 0.01441,2.1187 C 5.85899,49.825 6.45619,47.8761 7.21013,47.5117 Z M 6.98238,46.8087 C 6.73433,46.801 6.16185,46.7326 6.009,46.9344 c -0.12792,0.169 0.00137,0.5254 -0.01357,0.6863 -0.05375,0.5751 -0.52135,0.9072 -0.31233,1.5862 0.14191,0.4609 0.52188,0.8939 0.98495,1.0539 2.4437,0.8447 2.41393,-3.8769 0.31433,-3.4521 z"
       id="path24"
       inkscape:connector-curvature="0"
       style="clip-rule:evenodd;opacity:0.5;fill:#89c5cc;fill-rule:evenodd" />
    <path
       d="m -0.456772,47.9333 c -0.049547,0.0205 -0.049547,0.0205 0,0 z M -4.44473,47.6416 c -0.64969,0.0478 -1.19996,0.4215 -1.82114,0.5706 -0.66305,0.1593 -0.95002,-0.1335 -1.5529,-0.3252 -0.62717,-0.1994 -1.07331,-0.1206 -1.5774,0.3077 -0.28561,0.2427 -0.91223,0.8014 -0.73373,1.2325 0.40878,0.9868 1.33408,-0.6187 1.76927,-0.6934 0.67893,-0.1165 1.28296,0.4771 2.06583,0.3073 0.70944,-0.1537 1.33893,-0.6409 2.07992,-0.6461 0.6196,-0.0044 1.20354,0.3346 1.81525,0.4166 0.93382,0.1253 1.547007,-0.2062 2.4102406,-0.4524 C 0.759181,48.1458 1.28411,48.4272 1.98818,48.664 2.30997,48.7721 3.3837,49.1655 3.18604,48.4522 3.13018,48.2508 1.7152,47.8905 1.49586,47.8212 0.722259,47.5768 0.232363,47.6721 -0.504531,47.953 -1.11908,48.1875 -1.63601,48.3016 -2.29496,48.1727 -3.02091,48.0305 -3.68112,47.5837 -4.44473,47.6416 Z"
       id="path26"
       inkscape:connector-curvature="0"
       style="clip-rule:evenodd;opacity:0.5;fill:#89c5cc;fill-rule:evenodd" />
  </g>
  <g
     id="g52"
     style="opacity:0.5">
    <path
       d="m 24.1425,14.9352 c 0.1049,-2.2559 0.2491,-4.5087 0.3251,-6.76591 0.0377,-1.11854 0.0672,-2.23719 0.0957,-3.35593 0.0063,-0.24912 0.0128,-0.49812 0.0184,-0.74724 0.0185,-0.84631 -0.0819,-0.91555 0.7698,-0.99067 3.7994,-0.33537 7.6139,-0.44653 11.418,-0.74996 4.5878,-0.36595 9.1995,-0.61864 13.8003,-0.7319 2.0445,-0.05043 4.0976,-0.15487 6.1424,-0.0913 0.4531,0.01408 1.3424,-0.10381 1.5208,0.24838 0.0771,0.15213 -0.0846,0.67568 -0.1051,0.85125 -0.0641,0.54844 -0.1239,1.09878 -0.1608,1.64996 -0.2176,3.25076 -0.0879,6.58342 0.5416,9.78492 -1.4766,-0.8326 -3.3422,-1.5489 -5.0634,-1.4067 -1.7546,0.1449 -3.0671,1.1587 -4.4716,2.0918 -0.7945,0.5277 -1.0621,0.6665 -1.8547,0.1553 -0.6829,-0.4407 -1.3291,-0.9445 -1.9735,-1.4389 -0.9944,-0.7631 -1.9329,-1.5905 -2.8973,-2.3905 -1.773,-1.47094 -4.2157,-3.5646 -6.6646,-2.94817 -1.7496,0.44044 -3.3652,1.40201 -4.8837,2.34307 -2.2561,1.3981 -4.2984,3.1103 -6.5574,4.4925 z M 54.5498,0.50048 c -8.717,0 -17.3688,0.84505 -26.0612,1.30219 -0.9078,0.0477 -1.8126,0.11799 -2.7172,0.2053 -0.6029,0.05821 -2.0772,-0.18617 -2.4723,0.32897 -0.2636,0.34367 -0.0371,0.39526 0,0.7218 0.0467,0.41155 0.019,0.89916 0.0069,1.33477 -0.029,1.04961 -0.0595,2.09912 -0.0833,3.14884 -0.09,3.96735 -0.1462,7.93385 0.0144,11.90015 0.035,0.865 0.3502,2.0627 0.1777,2.9032 -0.1248,0.6085 -0.5421,0.9789 0.4203,1.0913 0.9471,0.1108 2.1052,-0.1708 3.0531,-0.261 0.9534,-0.0907 1.9067,-0.1892 2.8613,-0.2679 4.1502,-0.342 8.3407,-0.2903 12.5018,-0.404 4.1986,-0.1146 8.3988,-0.1219 12.5988,-0.1243 1.7573,-9e-4 3.7654,0.0979 5.4801,-0.3858 0.6033,-0.1702 0.7008,-0.254 0.5521,-0.8526 C 60.854,21.0279 60.6719,20.9859 60.6184,20.7806 60.5458,20.5013 60.5831,20.1617 60.566,19.8709 60.5105,18.9211 60.4912,17.9696 60.4464,17.0191 60.3717,15.4312 60.098,13.8901 59.8956,12.318 59.6619,10.5026 59.6739,8.65932 59.6692,6.832 59.6664,5.81842 59.6925,4.80821 59.7739,3.79747 59.8261,3.14921 60.1453,2.18133 59.9834,1.57678 59.9028,1.27577 59.7708,1.03705 59.4575,0.907507 59.2591,0.825345 59.0921,0.889646 58.8959,0.868843 58.6632,0.844152 58.5179,0.811477 58.2391,0.748332 57.0446,0.477575 55.7671,0.50048 54.5498,0.50048 Z"
       id="path30"
       inkscape:connector-curvature="0"
       style="clip-rule:evenodd;opacity:0.5;fill:#69a1ac;fill-rule:evenodd" />
    <path
       d="m 49.7258,4.81622 c -6e-4,0.63176 -0.0992,1.56402 0.192,2.1589 0.3695,0.75459 0.8316,0.51872 0.9541,-0.19038 0.0701,-0.40629 0.0684,-1.60867 -0.0622,-1.96852 -0.1846,-0.50937 -1.0839,-0.8563 -1.0839,0 z"
       id="path32"
       inkscape:connector-curvature="0"
       style="clip-rule:evenodd;opacity:0.5;fill:#89c5cc;fill-rule:evenodd" />
    <path
       d="m 50.7858,5.06039 c -0.5931,0.02091 -2.3204,-0.12146 -2.7217,0.35544 -0.6883,0.81794 0.51,0.96283 1.0245,0.91702 0.5954,-0.05295 2.4352,0.07628 2.834,-0.40114 0.667,-0.79872 -0.6705,-0.88834 -1.1368,-0.87132 z"
       id="path34"
       inkscape:connector-curvature="0"
       style="clip-rule:evenodd;opacity:0.5;fill:#89c5cc;fill-rule:evenodd" />
    <path
       d="m 27.7697,26.166 c 2.6074,0.453 1.7962,4.4285 -0.671,3.5077 -0.8597,-0.3209 -2.1264,-1.248 -1.6512,-2.3404 0.3549,-0.8162 1.5117,-1.245 2.3222,-1.1673 z m -1.0796,-1.2361 c -1.6958,0.2855 -2.8551,2.1206 -2.2736,3.7213 0.5608,1.5442 2.6883,2.675 4.2572,2.1201 1.4977,-0.5299 2.2449,-2.5227 1.74,-3.9805 -0.5276,-1.5231 -2.2464,-2.1096 -3.7236,-1.8609 z"
       id="path36"
       inkscape:connector-curvature="0"
       style="clip-rule:evenodd;opacity:0.5;fill:#89c5cc;fill-rule:evenodd" />
    <path
       d="m 42.55,26.6307 c -0.6491,0.0539 -1.2102,0.5084 -1.8634,0.5889 -0.6108,0.0752 -1.117,-0.1338 -1.6889,-0.3008 -0.6912,-0.2018 -1.3252,-0.2906 -2.0316,-0.1113 -0.5399,0.1371 -1.0723,0.5044 -1.6331,0.5488 -1.1034,0.0871 -2.3857,-1.1718 -3.2472,0.252 -0.413,0.6827 0.1867,1.1224 0.8044,0.804 0.644,-0.3318 0.3278,-0.4506 1.1266,-0.2546 0.6665,0.1634 1.2051,0.2522 1.8728,0.0231 0.6047,-0.2074 1.1356,-0.587 1.7929,-0.6296 0.6435,-0.0417 1.2034,0.2514 1.8186,0.3779 0.7565,0.1555 1.426,0.0378 2.1428,-0.1993 0.6818,-0.2256 0.9538,-0.3489 1.6418,-0.1477 0.4357,0.1274 1.3874,0.5322 1.8114,0.206 0.7332,-0.564 -0.2483,-0.6465 -0.6349,-0.7266 -0.6224,-0.129 -1.2663,-0.4837 -1.9122,-0.4308 z"
       id="path38"
       inkscape:connector-curvature="0"
       style="clip-rule:evenodd;opacity:0.5;fill:#89c5cc;fill-rule:evenodd" />
    <path
       d="m 57.4058,26.2522 c 0.0053,0.004 0.0104,0.008 0.0155,0.012 -0.0051,-0.004 -0.0103,-0.008 -0.0155,-0.012 z m -0.6372,-0.1333 c 0.9477,0.061 1.9726,1.7875 0.7168,1.8487 -0.884,0.0432 -1.8728,-1.4686 -0.7168,-1.8487 z m -0.133,-1.4127 c -2.9969,0.8368 -1.6269,5.0618 1.2638,4.5738 1.3129,-0.2217 1.7579,-1.7428 1.3238,-2.8688 -0.1864,-0.4836 -0.5498,-0.8914 -0.9842,-1.1697 -0.3205,-0.2053 -1.2372,-0.6374 -1.6034,-0.5353 z"
       id="path40"
       inkscape:connector-curvature="0"
       style="clip-rule:evenodd;opacity:0.5;fill:#89c5cc;fill-rule:evenodd" />
    <path
       d="m 24.2754,35.3076 c 1.5177,-0.8856 0.9175,2.2389 0.8926,2.7797 -0.0748,1.6281 0.0267,3.1845 0.1906,4.8023 0.1501,1.4828 -0.0225,2.9589 -0.0801,4.4418 -0.0306,0.7872 -0.0473,1.5733 -0.1066,2.3592 -0.0184,0.2452 0.01,1.35 -0.1187,1.9381 0.3308,-0.0146 0.6457,2e-4 0.8214,-0.0051 1.2294,-0.0372 2.4589,-0.0698 3.6881,-0.116 4.7287,-0.1778 9.46,-0.0974 14.1878,-0.3219 4.4717,-0.2126 8.9598,-0.2576 13.4349,-0.3126 0.3915,0.0342 0.5666,0.4451 0.3153,0.7609 -0.2458,0.309 -1.3856,0.2412 -1.7409,0.2699 -1.2604,0.1013 -2.5184,0.1469 -3.7826,0.159 -2.6623,0.0253 -5.3146,0.1394 -7.9725,0.291 -4.7225,0.2692 -9.4519,0.2469 -14.1769,0.4391 -1.1469,0.0466 -2.2939,0.0815 -3.4414,0.1116 -0.6051,0.0158 -2.1896,0.3803 -2.4894,-0.3426 -0.2118,-0.5109 0.0826,-0.7461 0.5132,-0.8531 -0.0886,-0.393 -0.0407,-0.9941 -0.0456,-1.1331 -0.0231,-0.6513 -0.0312,-1.3029 -0.0564,-1.954 -0.0597,-1.5516 -0.0993,-3.1122 -0.2189,-4.6603 -0.1142,-1.4799 -0.4029,-2.9149 -0.4112,-4.4058 -0.0055,-1.0083 -0.2857,-3.5632 0.5973,-4.2481 z m 32.9344,-0.3417 c 9e-4,-0.662 0.7947,-0.7951 1.1468,-0.3449 0.3368,0.4306 0.1201,1.7345 0.1283,2.2498 0.0271,1.6978 0.1876,3.3859 0.3401,5.076 0.1513,1.6763 0.2584,3.3532 0.3752,5.0321 0.0541,0.7759 0.6504,3.8727 -0.2163,4.3248 -1.1061,0.577 -0.8974,-2.3584 -0.9284,-2.8935 -0.0994,-1.7225 -0.2244,-3.4472 -0.3803,-5.1654 -0.2519,-2.7776 -0.4675,-5.49 -0.4654,-8.2789 z m -6.6415,-1.6454 c 1.4307,-0.0133 2.8535,0.0118 4.2821,0.0937 0.6335,0.0364 1.2668,0.0714 1.9008,0.0982 0.3663,0.0156 1.203,-0.1045 1.5242,0.0654 1.2612,0.6672 -1.3081,0.7403 -1.6205,0.735 -1.3106,-0.022 -2.6188,-0.124 -3.9293,-0.1562 -4.8204,-0.1184 -9.6767,0.1749 -14.4927,0.3725 -2.3168,0.0951 -4.6322,0.1086 -6.9481,0.2387 -1.2658,0.0711 -2.531,0.1524 -3.797,0.2191 -0.5836,0.0308 -1.1675,0.0607 -1.752,0.0754 -0.36,0.0091 -1.0931,0.1582 -1.4258,0.0221 -0.2834,-0.1158 -0.5125,-0.2779 -0.3568,-0.6212 0.1678,-0.3695 0.8978,-0.2122 1.2068,-0.2182 1.1156,-0.0217 2.2288,-0.0843 3.3424,-0.1525 2.5285,-0.1547 5.0517,-0.3358 7.5854,-0.379 4.8282,-0.0823 9.65,-0.3483 14.4805,-0.393 z"
       id="path42"
       inkscape:connector-curvature="0"
       style="clip-rule:evenodd;opacity:0.5;fill:#69a1ac;fill-rule:evenodd" />
    <path
       d="m 53.0533,37.6395 c 0.2532,-0.0792 0.4133,0.1819 0.3558,0.4009 -0.0769,0.2933 -0.9788,0.5306 -1.2291,0.6424 -0.9903,0.4422 -1.9856,0.8735 -2.9759,1.3161 -2.1574,0.964 -4.3189,1.9189 -6.476,2.8835 -0.0423,0.019 -0.0846,0.0379 -0.127,0.0568 1.5169,0.539 3.025,1.102 4.5265,1.6822 0.8034,0.3103 1.6025,0.6308 2.4041,0.9456 0.4015,0.1576 2.0711,0.5534 2.1672,0.9543 0.1355,0.5661 -1.6443,-0.1292 -1.9274,-0.2198 -0.7999,-0.2556 -1.5897,-0.5418 -2.3796,-0.8265 -1.7674,-0.6367 -3.5271,-1.2935 -5.3014,-1.9109 -0.1661,-0.0578 -0.3322,-0.1154 -0.4983,-0.1728 -1.8835,0.8462 -3.7629,1.7001 -5.6362,2.5677 -1.0045,0.4652 -2.0036,0.9413 -3,1.4237 -0.7387,0.3578 -2.0756,1.3784 -2.8893,1.3607 -0.3079,-0.0069 -0.5154,-0.0729 -0.5475,-0.4461 -0.041,-0.4772 0.7277,-0.6732 1.0383,-0.8285 1.0649,-0.5326 2.1365,-1.0517 3.2111,-1.5643 2.1342,-1.018 4.2885,-1.9954 6.4504,-2.9533 0.0124,-0.0054 0.0248,-0.0109 0.0372,-0.0164 -1.1989,-0.4059 -2.4012,-0.802 -3.6062,-1.1897 -0.6886,-0.2216 -5.517,-1.4132 -5.3409,-2.0528 0.1977,-0.717 4.4741,0.9735 5.1319,1.1831 1.8191,0.5798 3.6326,1.1779 5.4349,1.808 l -0.5952,-0.2062 c 3.8552,-1.7319 7.7513,-3.5774 11.7726,-4.8377 z"
       id="path44"
       inkscape:connector-curvature="0"
       style="clip-rule:evenodd;opacity:0.5;fill:#89c5cc;fill-rule:evenodd" />
    <path
       d="m 28.3416,55.0662 c 0.986,0.1729 1.6815,1.1187 1.5734,2.1092 -0.1462,1.3384 -1.4801,1.9517 -2.7124,1.7771 -1.3982,-0.1981 -1.6923,-1.3801 -1.0149,-2.5173 0.15,-0.2517 0.3225,-0.5529 0.5951,-0.6855 0.1874,-0.0911 0.4262,-0.0105 0.5771,-0.084 0.5293,-0.2575 0.2111,-0.6679 0.9817,-0.5995 z M 27.8927,54.192 c -1.2031,0.1537 -3.4262,1.5459 -3.3136,2.9389 0.0976,0.1615 0.2444,0.2276 0.4405,0.1982 -0.0472,0.3018 -0.0319,0.6003 0.0461,0.8956 0.1143,0.3834 0.3422,0.6977 0.6478,0.9473 0.6291,0.5142 1.4892,0.6404 2.2727,0.5502 1.4629,-0.1682 2.6159,-1.168 2.6981,-2.6896 0.0802,-1.4852 -1.2163,-3.0396 -2.7916,-2.8406 z"
       id="path46"
       inkscape:connector-curvature="0"
       style="clip-rule:evenodd;opacity:0.5;fill:#89c5cc;fill-rule:evenodd" />
    <path
       d="m 33.7202,56.0051 c -0.5398,0.2861 -1.3938,0.7256 -1.7104,1.269 -0.3344,0.5739 0.0119,1.2017 0.7165,0.9303 0.5594,-0.2155 0.9152,-0.9004 1.5119,-1.1198 0.5266,-0.1937 0.7388,-0.095 1.2953,0.0979 0.5734,0.1987 1.0747,0.3907 1.6946,0.342 0.7792,-0.0613 1.4539,-0.5131 2.2166,-0.6158 0.6421,-0.0866 1.1716,0.1632 1.7866,0.2626 0.7134,0.1153 1.1799,-0.1547 1.8474,-0.2953 0.4541,-0.0957 1.2543,0.2936 1.5855,0.1479 0.7447,-0.3274 -0.0431,-0.7277 -0.4553,-0.8599 -0.6944,-0.2228 -1.1218,-0.0262 -1.7823,0.1585 -0.7171,0.2006 -1.0269,0.0498 -1.7123,-0.1344 -1.3869,-0.3726 -2.4584,0.5284 -3.7729,0.3646 -1.2171,-0.1517 -1.9454,-1.2231 -3.2212,-0.5476 z"
       id="path48"
       inkscape:connector-curvature="0"
       style="clip-rule:evenodd;opacity:0.5;fill:#89c5cc;fill-rule:evenodd" />
    <path
       d="m 56.3977,55.3383 c 1.3349,1.2516 -0.1647,3.0323 -1.6367,2.032 -0.518,-0.3521 -0.5263,-0.9175 -0.1231,-1.4234 0.3687,-0.4627 1.1789,-0.6431 1.7598,-0.6086 z M 55.9028,54.327 c -1.2472,0.2426 -2.4236,0.8149 -2.5365,2.2543 -0.1102,1.4044 1.3303,2.0567 2.5405,1.9645 2.717,-0.2069 2.5206,-4.7069 -0.004,-4.2188 z"
       id="path50"
       inkscape:connector-curvature="0"
       style="clip-rule:evenodd;opacity:0.5;fill:#89c5cc;fill-rule:evenodd" />
  </g>
  <path
     d="m 103.835,7.68348 c -1.414,0.01928 -4.9075,0.38214 -5.4268,1.56225 -0.3942,0.89577 0.7767,0.69912 1.4043,0.37317 0.8495,-0.44079 1.5935,-0.70458 2.6455,-0.8387 4.007,-0.5112 7.858,1.322 11.826,1.5538 1.504,0.0878 3.318,0.145 4.753,-0.1983 1.023,-0.24455 1.156,-0.77771 -0.01,-0.85894 -0.992,-0.06896 -2.088,0.14844 -3.105,0.14226 -4.204,-0.02536 -7.942,-1.79131 -12.087,-1.73554 z"
     id="path54"
     inkscape:connector-curvature="0"
     style="clip-rule:evenodd;opacity:0.5;fill:#c1dee2;fill-rule:evenodd" />
  <g
     id="g70"
     style="opacity:0.5">
    <path
       d="m -6.19181,63.9759 c -1.13799,0.0168 -2.27597,0.037 -3.41364,0.0685 -0.90455,0.0252 -2.32595,-0.1234 -3.15555,0.2571 -0.9877,0.453 -0.5191,1.4624 0.4087,1.4838 0.8207,0.0189 1.696,-0.1662 2.52415,-0.1946 2.23699,-0.0766 4.47798,-0.0929 6.71603,-0.112 2.02406,-0.0175 4.13415,0.1984 6.14046,-0.1055 0.2976,2.6424 -0.50727,5.2961 -0.23352,7.9689 0.04244,0.4149 0.02343,1.0011 0.55171,1.0956 0.66674,0.1193 0.69416,-0.5411 0.71948,-1.014 C 4.13817,72.0735 4.09909,70.7222 4.19794,69.3703 4.28955,68.1174 4.46991,66.8369 4.31749,65.582 4.13008,64.0378 3.39013,64.1616 2.08207,64.0974 -0.680581,63.9619 -3.42611,63.9353 -6.19181,63.9759 Z"
       id="path56"
       inkscape:connector-curvature="0"
       style="clip-rule:evenodd;opacity:0.5;fill:#89c5cc;fill-rule:evenodd" />
    <path
       d="m -10.0056,73.3589 c -0.5798,0.0146 -1.5429,-0.1641 -1.9145,0.3919 -0.3865,0.5785 0.0721,1.0831 0.6342,1.2019 0.6654,0.1405 1.53297,-0.0521 2.22355,-0.0542 0.71916,-0.0021 1.43853,0.0059 2.15769,0.0087 3.08325,0.0121 6.179748,0.0587 9.2608,-0.0687 C 2.78642,74.8207 4.0076,74.965 4.30541,74.5522 4.56971,74.1862 4.38483,73.8578 4.0368,73.6713 3.46576,73.3654 2.2929,73.4817 1.65779,73.4574 0.873393,73.4276 0.0880547,73.4178 -0.696758,73.4056 -3.79441,73.3578 -6.90824,73.2822 -10.0056,73.3589 Z"
       id="path58"
       inkscape:connector-curvature="0"
       style="clip-rule:evenodd;opacity:0.5;fill:#89c5cc;fill-rule:evenodd" />
    <path
       d="m 1.32568,76.1353 c -0.615897,0.0153 -2.41473,-0.2495 -2.71979,0.4539 -0.5078,1.1711 1.927413,0.7262 2.39456,0.709 0.58879,-0.0217 2.88356,0.3221 2.88409,-0.6152 5.2e-4,-0.9192 -1.99497,-0.5617 -2.55886,-0.5477 z"
       id="path60"
       inkscape:connector-curvature="0"
       style="clip-rule:evenodd;opacity:0.5;fill:#89c5cc;fill-rule:evenodd" />
    <path
       d="m -4.27087,81.4762 c -0.49929,0.0679 -0.9158,0.4953 -0.69289,1.0373 0.28079,0.6825 1.11708,0.4158 1.66953,0.3726 1.75598,-0.1375 3.589378,0.1372 5.32414,-0.0701 0.47377,-0.0566 1.1611,-0.3147 0.73576,-0.9513 C 2.4459,81.3863 1.28092,81.4703 0.785721,81.4244 -0.907967,81.2677 -2.57938,81.3095 -4.27087,81.4762 Z"
       id="path62"
       inkscape:connector-curvature="0"
       style="clip-rule:evenodd;opacity:0.5;fill:#c1dee2;fill-rule:evenodd" />
    <path
       d="m -1.30732,84.4542 c -0.68103,0.0459 -2.2663,0.0098 -2.5533,0.7847 -0.51473,1.39 1.50156,0.9002 2.11546,0.8211 0.71317,-0.0918 2.394352,0.1541 2.7741,-0.5375 0.67903,-1.2366 -1.739068,-1.1095 -2.33626,-1.0683 z"
       id="path64"
       inkscape:connector-curvature="0"
       style="clip-rule:evenodd;opacity:0.5;fill:#c1dee2;fill-rule:evenodd" />
    <path
       d="m -3.05856,87.5042 c -0.32302,0.3232 -0.32355,0.9004 0,1.2236 0.39613,0.3957 1.25921,0.3135 1.77972,0.3424 0.725988,0.0406 2.81108,0.4245 3.17161,-0.4303 C 2.37914,87.4865 0.491007,87.5106 -0.130036,87.4451 -0.847828,87.3696 -2.46368,86.909 -3.05856,87.5042 Z"
       id="path66"
       inkscape:connector-curvature="0"
       style="clip-rule:evenodd;opacity:0.5;fill:#c1dee2;fill-rule:evenodd" />
    <path
       d="m 0.646478,98.6847 c -0.05473,0.0703 -0.05473,0.0703 0,0 z m 0.224279,-0.2703 c -0.016912,0.0256 -0.095488,0.1085 0,0 z M -1.57024,98.34 c 0.45118,-0.0849 0.902572,-0.1689 1.354278,-0.2513 C -0.643718,98.6875 -1.09416,98.44 -1.82488,98.3879 -1.74,98.3719 -1.65512,98.356 -1.57024,98.34 Z m -2.15264,-0.2119 c 0.1144,-0.0382 0.22869,-0.0765 0.34308,-0.1147 -0.00346,0.087 0.01524,0.1686 0.0561,0.2445 -0.19581,-0.0212 -0.39141,-0.0439 -0.5868,-0.068 0.06251,-0.0206 0.12511,-0.0412 0.18762,-0.0618 z m -0.99754,-0.7365 c -0.00641,-0.1572 0.22985,-0.0493 0.36525,-0.0598 -0.26104,0.2297 -0.38279,0.2497 -0.36525,0.0598 z m 3.56753,-1.7819 c 0.03435,-0.0438 0.07984,-0.0416 0.13646,0.0066 -0.06177,0.0207 -0.2997,0.1216 -0.13646,-0.0066 z m 2.31358,-0.2721 c 0.00609,0 0.13446,0.1733 0,0 z M 1.09577,95.2808 c 0.03361,0.0257 0.03361,0.0257 0,0 z M 0.806992,95.2471 c 0.473028,0.0797 0.437108,0.6349 0,0 z M -4.75057,95.2092 c -0.09611,0.0798 -0.06323,0.0024 0,0 z m 1.80903,-1.1819 c -0.80309,0.0468 -2.27722,-3e-4 -2.94796,0.4276 -0.87525,0.5585 -0.41473,2.4811 -0.33636,3.324 0.11576,1.2458 0.70193,1.6005 1.87521,1.7313 1.40019,0.1561 2.83881,0.1852 4.246247,0.1482 C 1.1631,99.6251 1.885,99.1891 2.11715,97.8546 2.18827,97.4462 2.36874,96.8145 2.36307,96.4234 2.35918,96.1521 2.22398,96.0284 2.17283,95.7977 1.88174,94.4843 1.39495,94.3285 0.0487561,94.2713 -0.942056,94.2291 -1.96932,93.9764 -2.94154,94.0273 Z"
       id="path68"
       inkscape:connector-curvature="0"
       style="clip-rule:evenodd;opacity:0.5;fill:#89c5cc;fill-rule:evenodd" />
  </g>
  <g
     id="g94"
     style="opacity:0.5">
    <path
       d="m 41.6925,63.8523 c 2.0418,0.0435 4.3585,1.1736 4.0356,3.5676 -0.2365,1.7537 -1.755,3.1774 -3.5136,3.3002 -1.89,0.1319 -3.8884,-1.3187 -4.1451,-3.2432 -0.2889,-2.1645 1.6265,-3.6678 3.6231,-3.6246 z m -1.0013,-0.9745 c -0.8277,0.1236 -1.6187,0.5582 -2.3476,0.9476 -0.2782,0.1487 -1.6888,1.0552 -0.5825,1.2804 -2.6656,4.299 3.6078,8.2921 7.1348,5.4982 1.5839,-1.2547 2.4177,-3.6335 1.3939,-5.4955 -1.0589,-1.9258 -3.57,-2.5354 -5.5986,-2.2307 z"
       id="path72"
       inkscape:connector-curvature="0"
       style="clip-rule:evenodd;opacity:0.5;fill:#89c5cc;fill-rule:evenodd" />
    <path
       d="m 40.2034,66.5369 c 0,0.8029 1.2462,0.8029 1.2462,0 0,-0.8029 -1.2462,-0.8029 -1.2462,0 z"
       id="path74"
       inkscape:connector-curvature="0"
       style="clip-rule:evenodd;opacity:0.5;fill:#89c5cc;fill-rule:evenodd" />
    <path
       d="m 42.5139,66.6652 c 0,0.8705 1.3512,0.8705 1.3512,0 0,-0.8705 -1.3512,-0.8705 -1.3512,0 z"
       id="path76"
       inkscape:connector-curvature="0"
       style="clip-rule:evenodd;opacity:0.5;fill:#89c5cc;fill-rule:evenodd" />
    <path
       d="m 40.9547,68.3867 c -0.1819,0.6604 1.8914,0.9991 1.9604,0.2347 0.0329,-0.3651 -1.834,-0.6955 -1.9604,-0.2347 z"
       id="path78"
       inkscape:connector-curvature="0"
       style="clip-rule:evenodd;opacity:0.5;fill:#89c5cc;fill-rule:evenodd" />
    <path
       d="m 47.0323,67.9789 c 2.3856,-0.2862 4.8454,-0.1539 7.2426,-0.0853 0.6,0.0173 1.1998,0.0342 1.7999,0.0441 0.3814,0.0065 1.2052,0.1895 1.5381,0.011 1.3634,-0.7312 -1.311,-1.0847 -1.6897,-1.1183 -2.3844,-0.1962 -6.0643,-0.2662 -8.4558,-0.1736 -0.7073,0.0274 -0.8602,1.3731 -0.4351,1.3221 z"
       id="path80"
       inkscape:connector-curvature="0"
       style="clip-rule:evenodd;opacity:0.5;fill:#89c5cc;fill-rule:evenodd" />
    <path
       d="m 57.7676,79.8385 c 0.0204,-2.4996 0.11,-5.0162 0.3022,-7.5083 0.0782,-1.0159 0.1721,-2.0303 0.2499,-3.0461 0.0367,-0.4785 0.2067,-1.1487 -0.0745,-1.5685 -0.2899,-0.4326 -0.9256,-0.5225 -1.3087,-0.1392 -0.4586,0.5937 -0.3254,1.5901 -0.3824,2.3082 -0.0877,1.1042 -0.1937,2.2075 -0.2463,3.314 -0.1017,2.1418 -0.1256,4.3208 0.0466,6.4595 0.0812,1.0092 0.2575,1.9939 0.4918,2.9782 0.1068,0.448 0.9559,2.4439 0.7775,2.7191 -0.2767,0.4268 -2.3216,0.2655 -2.7651,0.2773 -1.1382,0.0306 -2.2769,0.0505 -3.4154,0.0722 -0.9748,0.0186 -1.9495,0.032 -2.9244,0.0406 C 48.1317,85.749 45.8574,85.68 46.3619,86.2539 40.7204,86.6471 34.971,85.9908 29.3638,85.7657 29.0805,85.7542 28.6171,85.6738 28.1894,85.6507 28.1381,85.4441 28.096,85.2594 28.0856,85.1311 28.0119,84.23 27.9927,83.3257 27.9128,82.4248 27.7666,80.7764 27.4831,79.1447 27.3145,77.4991 27.1463,75.8553 27.1632,74.2065 27.0652,72.5586 27.0484,72.2763 27.0087,69.9634 26.425,69.4015 c 0.2767,0.1048 0.7229,0.1185 0.9799,0.0978 2.0801,-0.1678 4.1449,-0.5292 6.2071,-0.8395 0.5899,-0.0887 1.9288,-0.0258 2.4182,-0.3207 0.4235,-0.2554 0.5911,-1.1505 -0.1457,-1.0781 -2.0563,0.2203 -4.1015,0.5622 -6.1416,0.8988 -0.5457,0.09 -1.09,0.1862 -1.6342,0.2846 -0.3634,0.0657 -1.3228,0.0606 -1.6046,0.2797 -0.3424,0.266 -0.3787,0.447 -0.2627,0.5673 -0.1613,-0.0443 -0.3546,0.0254 -0.5868,0.2577 -0.439,0.5714 -0.0262,1.9786 0.0261,2.6485 0.0629,0.8037 0.0937,1.6087 0.1304,2.4138 0.0707,1.558 0.2338,3.0944 0.4844,4.6336 0.2809,1.7244 0.5199,3.4558 0.8015,5.1796 0.0733,0.4488 0.1689,0.8865 0.2909,1.3202 -0.7587,0.3881 -0.2429,1.0052 0.3588,1.1147 0.0043,7e-4 0.0089,0.0013 0.0132,0.0021 0.1875,0.4574 0.4498,0.8813 0.6547,0.2683 0.0157,-0.047 0.023,-0.1049 0.0249,-0.17 1.5541,0.176 3.2624,0.0667 4.7925,0.1292 3.3143,0.1355 6.6491,0.3387 9.9667,0.2357 1.3135,-0.0408 2.6309,-0.1574 3.9333,-0.3327 0.763,-0.1027 1.529,-0.2251 2.2799,-0.3954 0.0537,-0.012 0.1356,-0.0249 0.23,-0.0404 0.0154,-4e-4 0.031,-9e-4 0.0456,-0.0011 1.1498,-0.0173 2.2985,-0.0481 3.4473,-0.0959 0.9642,-0.0401 1.9328,-0.0607 2.894,-0.1516 0.597,-0.0565 1.8588,-0.046 2.2253,-0.6464 0.3333,-0.5459 -0.2239,-1.9522 -0.3031,-2.5654 -0.1391,-1.0797 -0.1924,-2.1695 -0.1834,-3.2574 z"
       id="path82"
       inkscape:connector-curvature="0"
       style="clip-rule:evenodd;opacity:0.5;fill:#c1dee2;fill-rule:evenodd" />
    <path
       d="m 46.1162,72.6209 c -0.9187,0.0787 -1.7681,0.5101 -2.6953,0.5155 -0.7782,0.0044 -1.5444,-0.2282 -2.3269,-0.1938 -0.9178,0.0401 -1.4228,0.6336 -2.2268,0.8322 -0.6401,0.1581 -1.0433,-0.3319 -1.6063,-0.5486 -0.7109,-0.2738 -1.236,-0.1325 -1.8453,0.2815 -0.4476,0.3042 -1.4917,0.9869 -1.4837,1.6022 0.024,1.8637 2.1985,-0.7108 2.6368,-0.742 0.5824,-0.0414 1.2331,0.6224 1.8528,0.6603 0.8193,0.0501 1.3446,-0.4781 2.0991,-0.6705 0.7629,-0.1947 1.5876,0.0438 2.3524,0.1178 0.8727,0.0844 1.6364,-0.1101 2.4806,-0.3184 0.8182,-0.2019 1.5154,-0.1912 2.3467,-0.0217 0.5611,0.1145 1.9588,0.7797 2.2042,-0.0757 0.3343,-1.1648 -3.146,-1.4934 -3.7883,-1.4388 z"
       id="path84"
       inkscape:connector-curvature="0"
       style="clip-rule:evenodd;opacity:0.5;fill:#89c5cc;fill-rule:evenodd" />
    <path
       d="m 46.3958,76.1753 c -1.8824,0.1827 -3.7763,0.3429 -5.6673,0.3942 -0.819,0.0223 -3.9676,-0.3287 -3.6883,0.712 0.2393,0.8924 4.5239,0.3305 5.3966,0.2625 0.9634,-0.0748 1.9254,-0.1795 2.8841,-0.3007 0.3397,-0.043 1.1602,0.0014 1.3999,-0.2835 0.2285,-0.2718 0.1158,-0.8286 -0.325,-0.7845 z"
       id="path86"
       inkscape:connector-curvature="0"
       style="clip-rule:evenodd;opacity:0.5;fill:#89c5cc;fill-rule:evenodd" />
    <path
       d="m 33.4096,80.9148 c -0.0428,0.0181 -0.0428,0.0181 0,0 z m 0.3971,-0.0053 c 0.4693,-0.0149 0.3687,-0.2623 0.8368,-0.1334 0.216,0.0595 0.2381,-0.0288 0.4055,0.1776 0.3266,0.4026 0.019,1.2794 -0.303,1.6038 -1.192,1.2013 -2.6225,-1.5947 -0.9393,-1.648 z m 0,-1.1786 c -3.2634,0.1096 -1.898,5.1506 0.9423,4.1216 1.173,-0.425 1.9103,-2.3396 1.2204,-3.4155 -0.3357,-0.5234 -0.7636,-0.6165 -1.3259,-0.6528 -0.1305,-0.0084 -0.2947,0.1813 -0.3762,0.1727 -0.1937,-0.0205 -0.1756,-0.2368 -0.4606,-0.226 z"
       id="path88"
       inkscape:connector-curvature="0"
       style="clip-rule:evenodd;opacity:0.5;fill:#89c5cc;fill-rule:evenodd" />
    <path
       d="m 41.6107,81.0879 c -0.0582,-0.018 1.0304,0.2985 0.9113,0.1746 0.2542,0.2643 -0.0876,0.8894 -0.3751,0.9985 -0.6963,0.2644 -1.087,-0.8183 -0.5362,-1.1731 z m 0.4831,-1.367 c -1.0218,0.1448 -1.8104,0.5704 -1.9501,1.7066 -0.1288,1.0488 0.5798,2.1109 1.6976,2.1314 2.4364,0.0446 2.5106,-4.153 0.2525,-3.838 z"
       id="path90"
       inkscape:connector-curvature="0"
       style="clip-rule:evenodd;opacity:0.5;fill:#89c5cc;fill-rule:evenodd" />
    <path
       d="m 53.2162,81.1337 c 0.1428,1.8624 -1.7885,0.1577 0,0 z m -0.8287,-1.9926 c -0.1689,0.2888 -0.0249,0.5952 0.2299,0.763 -2.278,0.4814 -1.762,3.9094 0.5561,3.403 1.1788,-0.2576 1.3955,-1.4972 1.2199,-2.5206 -0.0836,-0.4867 -1.2965,-2.8583 -2.0059,-1.6454 z"
       id="path92"
       inkscape:connector-curvature="0"
       style="clip-rule:evenodd;opacity:0.5;fill:#89c5cc;fill-rule:evenodd" />
  </g>
  <path
     d="m 64.3789,80.9301 c -0.9596,0.1208 -3.2281,0.8708 -3.2084,1.6763 0.0309,1.2573 1.9588,-0.1162 2.3876,-0.3008 2.3038,-0.9922 5.2877,0.2935 7.6865,0.5671 1.0998,0.1254 3.2513,0.3572 4.2228,-0.1644 1.7275,-0.9277 -2.2679,-0.6954 -2.7767,-0.7327 -2.7658,-0.2022 -5.5173,-1.3988 -8.3118,-1.0455 z"
     id="path96"
     inkscape:connector-curvature="0"
     style="clip-rule:evenodd;opacity:0.5;fill:#c1dee2;fill-rule:evenodd" />
  <g
     id="g132"
     style="opacity:0.5">
    <path
       d="m 98.711,72.0892 c -6e-4,1.2866 -0.0657,2.5998 0.1714,3.8709 0.0718,0.3848 0.1285,1.1219 0.5344,1.3216 0.4078,0.2006 0.8032,-0.0248 0.9042,-0.4428 0.118,-0.4863 -0.141,-1.2142 -0.167,-1.7248 -0.036,-0.6975 -0.038,-1.3958 -0.039,-2.0941 0,-0.5044 0.166,-1.3157 -0.4294,-1.5751 -0.4427,-0.193 -0.9746,0.1658 -0.9746,0.6443 z"
       id="path98"
       inkscape:connector-curvature="0"
       style="clip-rule:evenodd;opacity:0.5;fill:#c1dee2;fill-rule:evenodd" />
    <path
       d="m 119.05,70.0547 c -4.262,0.4278 -8.586,0.5168 -12.864,0.7399 -1.978,0.1031 -4.367,-0.0285 -6.2304,0.737 -0.3458,0.1421 -1.5849,0.9333 -0.579,1.2554 0.3135,0.1005 0.6324,-0.2373 0.8894,-0.3505 0.429,-0.1882 0.925,-0.2465 1.382,-0.32 3.888,-0.6242 7.953,-0.5155 11.881,-0.8072 1.006,-0.0748 2.013,-0.1517 3.017,-0.2505 0.717,-0.0706 2.225,-0.5877 2.887,-0.3232 1.132,0.4519 1.105,3.3883 1.127,4.3981 0.012,0.5223 -0.495,2.397 0.513,2.207 0.806,-0.1522 0.514,-2.0998 0.451,-2.6325 -0.164,-1.3965 -0.446,-4.859 -2.474,-4.6535 z"
       id="path100"
       inkscape:connector-curvature="0"
       style="clip-rule:evenodd;opacity:0.5;fill:#c1dee2;fill-rule:evenodd" />
    <path
       d="m 120.622,77.2727 c -3.703,0.3343 -7.49,0.0063 -11.208,0.1377 -1.949,0.0691 -3.895,0.1788 -5.844,0.2432 -0.843,0.0279 -1.687,0.0291 -2.53,0.0351 -0.404,0.0027 -2.2392,0.2472 -1.1036,1.0469 0.5026,0.3541 2.1046,0.0689 2.6816,0.062 0.867,-0.0102 1.733,-0.0462 2.599,-0.0802 2.006,-0.0784 4.01,-0.1871 6.017,-0.2414 1.919,-0.0519 3.84,-0.0631 5.759,-0.115 0.956,-0.026 1.924,-0.0553 2.87,-0.1947 0.214,-0.0315 0.908,-0.0565 1.056,-0.2947 0.14,-0.2252 0.042,-0.6316 -0.297,-0.5989 z"
       id="path102"
       inkscape:connector-curvature="0"
       style="clip-rule:evenodd;opacity:0.5;fill:#89c5cc;fill-rule:evenodd" />
    <path
       d="m 102.425,74.4938 c -0.02,0.0472 -0.02,0.0472 0,0 z m 1.604,-0.4873 c 0.058,0.0248 0.058,0.0248 0,0 z m -0.076,-0.0135 c 0.865,0.8807 -0.464,1.932 -1.274,1.0724 -0.859,-0.9122 0.718,-1.0695 1.274,-1.0724 z m -0.916,-1.3324 c -2.976,0.5296 -1.922,4.4961 0.857,3.9228 1.221,-0.2516 1.919,-1.481 1.499,-2.6619 -0.165,-0.4614 -0.522,-0.9678 -1.02,-1.1132 -0.249,-0.0725 -0.468,0.0416 -0.705,0.0149 -0.226,-0.0254 -0.351,-0.2131 -0.631,-0.1626 z"
       id="path104"
       inkscape:connector-curvature="0"
       style="clip-rule:evenodd;opacity:0.5;fill:#c1dee2;fill-rule:evenodd" />
    <path
       d="m 114.427,73.7762 c -1.795,0.0057 -3.59,0.0819 -5.384,0.116 -0.55,0.0104 -1.965,-0.236 -1.967,0.6317 -0.003,0.9272 1.573,0.5848 2.097,0.5723 1.78,-0.0425 3.565,-0.1206 5.338,-0.29 0.447,-0.0429 1.998,0.0311 1.996,-0.5779 -0.002,-0.6452 -1.718,-0.4521 -2.08,-0.4521 z"
       id="path106"
       inkscape:connector-curvature="0"
       style="clip-rule:evenodd;opacity:0.5;fill:#c1dee2;fill-rule:evenodd" />
    <path
       d="m 118.714,79.8278 c -4.439,0.1191 -8.871,0.1606 -13.306,0.3878 -1.659,0.0849 -3.316,0.1481 -4.977,0.1481 -0.32,0 -0.9641,-0.1239 -1.2652,0.0776 -0.8173,0.5465 0.1133,1.0157 0.646,1.0452 3.6432,0.2022 7.3392,-0.3011 10.9812,-0.4147 2.131,-0.0664 4.264,-0.0861 6.394,-0.1945 0.581,-0.0296 1.163,-0.064 1.743,-0.109 0.334,-0.0258 1.216,0.045 1.486,-0.1502 1.177,-0.8523 -1.305,-0.801 -1.702,-0.7903 z"
       id="path108"
       inkscape:connector-curvature="0"
       style="clip-rule:evenodd;opacity:0.5;fill:#89c5cc;fill-rule:evenodd" />
    <path
       d="m 98.3485,81.9984 c -0.0417,1.1508 -0.046,2.2815 0.1045,3.426 0.0593,0.4503 0.0865,0.9614 0.6143,1.0758 0.4794,0.1038 0.7225,-0.2587 0.8219,-0.6608 0.2428,-0.9817 0.029,-2.3946 0.0262,-3.4145 -0.0013,-0.5042 -0.0018,-1.0686 -0.6249,-1.1826 -0.4753,-0.087 -0.9238,0.2565 -0.942,0.7561 z"
       id="path110"
       inkscape:connector-curvature="0"
       style="clip-rule:evenodd;opacity:0.5;fill:#89c5cc;fill-rule:evenodd" />
    <path
       d="m 123.418,84.7718 c -7.185,0.3786 -14.36,0.7092 -21.55,1.0132 -0.561,0.0237 -4.9173,-0.0238 -3.3944,1.4953 0.4704,0.4692 1.6824,0.1514 2.2904,0.1216 0.914,-0.0449 1.829,-0.0792 2.743,-0.1258 3.624,-0.1844 7.258,-0.2342 10.88,-0.4413 1.993,-0.1139 3.982,-0.2922 5.964,-0.5243 0.943,-0.1104 2.114,-0.0989 2.997,-0.4685 0.455,-0.1902 0.945,-1.1166 0.07,-1.0702 z"
       id="path112"
       inkscape:connector-curvature="0"
       style="clip-rule:evenodd;opacity:0.5;fill:#89c5cc;fill-rule:evenodd" />
    <path
       d="m 119.287,78.9347 c -0.546,0.5442 -0.265,1.6178 -0.224,2.2904 0.057,0.9257 0.126,1.8519 0.241,2.7724 0.075,0.598 0.036,1.5287 0.355,2.0451 0.373,0.6049 1.196,0.5381 1.533,-0.0464 0.299,-0.5168 0.148,-1.6042 0.14,-2.177 -0.01,-0.792 -0.06,-1.5852 -0.107,-2.3757 -0.039,-0.6606 0.111,-1.7193 -0.253,-2.2847 -0.369,-0.5746 -1.173,-0.7333 -1.685,-0.2241 z"
       id="path114"
       inkscape:connector-curvature="0"
       style="clip-rule:evenodd;opacity:0.5;fill:#89c5cc;fill-rule:evenodd" />
    <path
       d="m 102.864,83.1577 c -0.064,0.0494 -0.064,0.0494 0,0 z m 1.276,-0.1599 c 1.191,0.2395 -0.734,1.6298 -1.343,0.6756 -0.095,-0.1491 -0.144,-0.3323 0.008,-0.4619 0.14,-0.1183 0.227,0.0911 0.359,0.0349 0.226,-0.0971 0.735,-0.2576 0.976,-0.2486 z m -0.164,-1.1414 c -0.813,0.0644 -1.931,0.1146 -2.333,0.9295 -0.541,1.0947 0.384,2.1667 1.454,2.3332 1.029,0.1604 2.566,-0.4098 2.648,-1.6102 0.066,-0.9679 -0.854,-1.7267 -1.769,-1.6525 z"
       id="path116"
       inkscape:connector-curvature="0"
       style="clip-rule:evenodd;opacity:0.5;fill:#89c5cc;fill-rule:evenodd" />
    <path
       d="m 110.764,82.4352 c -0.842,0.0136 -2.496,-0.2353 -3.23,0.175 -0.725,0.4059 -0.402,1.1287 0.26,1.3016 0.438,0.1143 1.153,-0.0701 1.608,-0.0887 0.6,-0.0243 1.199,-0.0296 1.799,-0.0379 1.008,-0.0135 2.016,-0.0021 3.024,-0.0021 1.03,0 2.078,0.0281 3.106,-0.0476 1.301,-0.0957 1.266,-1.0698 -0.006,-1.1916 -2.162,-0.2068 -4.393,-0.1428 -6.561,-0.1087 z"
       id="path118"
       inkscape:connector-curvature="0"
       style="clip-rule:evenodd;opacity:0.5;fill:#89c5cc;fill-rule:evenodd" />
    <path
       d="m 108.614,93.3452 c 0,0.4628 0.41,0 0.407,0 0.003,0 -0.407,-0.4629 -0.407,0 z"
       id="path120"
       inkscape:connector-curvature="0"
       style="clip-rule:evenodd;opacity:0.5;fill:#89c5cc;fill-rule:evenodd" />
    <path
       d="m 99.3253,89.6196 c 0.0265,1.3452 0.0439,2.6917 0.1013,4.0359 0.0183,0.4251 -0.1035,1.2551 0.4117,1.4718 0.5737,0.2412 0.7517,-0.36 0.8177,-0.7674 0.209,-1.2907 0.004,-2.7643 -0.016,-4.0703 -0.007,-0.4385 0.088,-1.0489 -0.41,-1.2675 -0.406,-0.1784 -0.9129,0.1527 -0.9047,0.5975 z"
       id="path122"
       inkscape:connector-curvature="0"
       style="clip-rule:evenodd;opacity:0.5;fill:#89c5cc;fill-rule:evenodd" />
    <path
       d="m 121.448,89.6404 c 0.034,0.0801 0.034,0.0801 0,0 z m 0.048,-0.0138 c 0.027,0.0116 0.139,0.0583 0,0 z m -10.868,-1.0873 c -2.065,0.0324 -4.131,0.057 -6.195,0.1454 -0.881,0.0378 -1.772,0.0682 -2.65,0.1513 -0.621,0.0588 -2.1659,0.0832 -2.5691,0.5913 -0.8322,1.0487 0.9321,0.7627 1.3121,0.6776 0.692,-0.1551 1.398,-0.2048 2.105,-0.242 1.533,-0.0809 3.067,-0.1242 4.602,-0.155 4.164,-0.0838 8.33,-0.0711 12.494,-0.0899 0.403,-0.0018 1.132,-0.1639 1.504,-8e-4 0.373,0.1634 0.352,0.5653 0.391,1.0319 0.051,0.6207 -0.358,1.8037 -0.046,2.3259 0.484,0.8099 1.187,0.1222 1.295,-0.4683 0.149,-0.8159 -0.087,-1.7957 -0.318,-2.5756 -0.325,-1.1004 -0.777,-1.1442 -1.841,-1.2302 -1.244,-0.1004 -2.483,-0.1613 -3.73,-0.1729 -2.118,-0.0194 -4.236,-0.0215 -6.354,0.0113 z"
       id="path124"
       inkscape:connector-curvature="0"
       style="clip-rule:evenodd;opacity:0.5;fill:#89c5cc;fill-rule:evenodd" />
    <path
       d="m 118.796,94.1003 c -4.479,0.5202 -9.086,0.2137 -13.589,0.2321 -1.095,0.0045 -2.191,0.0132 -3.285,0.0663 -0.578,0.028 -1.9474,-0.1313 -2.3433,0.3144 -0.8344,0.9397 0.6683,1.0765 1.2173,1.0375 1.11,-0.0789 2.222,-0.1149 3.334,-0.1235 3.918,-0.0302 7.858,0.1526 11.773,-0.0407 1.64,-0.081 3.244,-0.3615 4.854,-0.6751 0.356,-0.0695 2.798,-0.5336 1.406,-1.0898 -0.823,-0.3288 -2.502,0.1779 -3.367,0.2788 z"
       id="path126"
       inkscape:connector-curvature="0"
       style="clip-rule:evenodd;opacity:0.5;fill:#89c5cc;fill-rule:evenodd" />
    <path
       d="m 105.718,92.3803 c -0.031,0.0401 -0.031,0.0401 0,0 z m -0.03,-0.007 c -0.011,0.0288 -0.044,0.0999 0,0 z m -0.283,-0.3644 c 0.007,0.0084 0.034,0.0425 0,0 z m -0.01,-0.0027 c 0.107,0.1287 0.18,0.2723 0.217,0.4308 -0.928,0.2513 -1.285,-0.4994 -0.217,-0.4308 z m -0.059,-0.0352 c 0,2e-4 0.131,0.0551 0,0 z m -1.525,-1.1186 c -0.6,0.7481 -1.096,1.6197 -0.347,2.4741 0.669,0.7639 2.016,0.8625 2.866,0.3525 0.876,-0.5255 0.8,-1.6318 0.189,-2.3539 -0.393,-0.4649 -0.712,-0.452 -1.282,-0.5279 -0.388,-0.0516 -1.096,-0.3536 -1.426,0.0552 z"
       id="path128"
       inkscape:connector-curvature="0"
       style="clip-rule:evenodd;opacity:0.5;fill:#89c5cc;fill-rule:evenodd" />
    <path
       d="m 110.02,92.2366 c 0,0.996 4.301,0.5673 5.066,0.5663 0.641,-10e-4 4.516,0.3525 4.238,-0.6724 -0.229,-0.8422 -4.046,-0.4236 -4.859,-0.4249 -0.702,-9e-4 -4.445,-0.4834 -4.445,0.531 z"
       id="path130"
       inkscape:connector-curvature="0"
       style="clip-rule:evenodd;opacity:0.5;fill:#89c5cc;fill-rule:evenodd" />
  </g>
  <g
     id="g138"
     style="opacity:0.5">
    <path
       d="m 46.1486,101.569 c 2.1538,0.313 4.3943,1.326 4.3754,3.833 -0.0158,2.108 -1.7837,4.351 -4.0538,4.225 -2.043,-0.113 -3.9666,-2.347 -4.2224,-4.262 -0.1326,-0.992 0.1154,-2.06 0.6989,-2.876 0.7645,-1.069 1.9776,-1.067 3.2019,-0.92 z m -1.0174,-1.363 c -1.5577,0.009 -2.6975,0.572 -3.6616,1.762 -0.3458,0.426 -0.7479,0.885 -1.0111,1.369 -0.2459,0.451 -0.2028,1.598 0.6409,1.06 -0.2078,2.222 1.0907,4.379 2.9573,5.517 2.029,1.237 4.3224,0.996 6.011,-0.738 1.5458,-1.588 2.0898,-4.27 0.9589,-6.234 -1.1302,-1.963 -3.749,-2.757 -5.8954,-2.736 z"
       id="path134"
       inkscape:connector-curvature="0"
       style="clip-rule:evenodd;opacity:0.5;fill:#89c5cc;fill-rule:evenodd" />
    <path
       d="m 49.8024,99.6106 c -0.9974,0.7314 -1.908,1.6934 -2.6644,2.6694 -0.7393,0.955 -1.228,2.146 -2.1161,2.978 -0.4485,-0.488 -0.974,-1.808 -1.8686,-1.284 -0.7424,0.434 -0.2644,1.181 0.0972,1.672 0.9337,1.266 1.9705,1.776 3.168,0.524 1.0876,-1.136 1.7051,-2.652 2.722,-3.853 0.446,-0.528 1.1351,-1.051 1.4903,-1.633 0.3219,-0.528 -0.0763,-1.6261 -0.8284,-1.0734 z"
       id="path136"
       inkscape:connector-curvature="0"
       style="clip-rule:evenodd;opacity:0.5;fill:#89c5cc;fill-rule:evenodd" />
  </g>
  <g
     id="g174"
     style="opacity:0.5">
    <path
       d="m 86.3896,17.0969 c 0.6526,0.0035 1.5353,-0.1374 2.1852,0.0136 1.2654,0.2938 1.1853,2.4631 1.2112,3.5121 0.0466,1.8816 0.0196,3.8596 -0.1333,5.7368 -0.0527,0.6481 -0.5242,1.4696 -1.0621,0.5761 -0.2999,-0.4981 -0.1662,-1.6618 -0.1667,-2.2122 -0.0014,-1.9566 0.3052,-3.9724 0.0119,-5.919 -0.0962,-0.6382 -0.0749,-0.6813 -0.7241,-0.6679 -0.515,0.0107 -1.03,0.0278 -1.545,0.0386 -1.0487,0.022 -2.0979,0.0364 -3.1462,0.0748 -0.3981,0.0147 -1.8288,0.2646 -2.9445,0.2637 5e-4,0.0089 0.0015,0.0178 0.0017,0.0269 0.0153,0.7544 -0.3545,1.6699 -0.4048,2.4636 -0.121,1.909 0.0234,3.8626 -0.1553,5.7619 -0.0055,0.0576 -0.0084,0.119 -0.0118,0.1809 0.0336,-0.0054 0.0664,-0.009 0.0979,-0.011 0.8316,-0.0528 1.6741,-0.031 2.5073,-0.0503 1.7061,-0.0395 3.4796,0.0537 5.1758,-0.1461 0.3448,-0.0446 0.4653,0.3976 0.3106,0.6269 -0.1736,0.2573 -0.7291,0.2442 -0.9862,0.2823 -0.753,0.1115 -1.5159,0.1504 -2.2755,0.1841 -0.7979,0.0353 -1.5964,0.0617 -2.3948,0.084 -0.6915,0.0191 -2.226,0.3083 -2.8657,0.0188 -0.4987,-0.2256 -0.4869,-0.4761 -0.2833,-0.6701 -0.1235,-0.271 -0.1032,-0.715 -0.1297,-0.9282 -0.1106,-0.893 -0.1773,-1.7746 -0.1789,-2.6752 -0.0031,-1.7642 4e-4,-3.5965 0.4884,-5.3042 -0.1954,-0.0856 -0.3133,-0.2117 -0.3128,-0.3936 0.0026,-1.08 3.9646,-0.8221 4.768,-0.8435 0.9874,-0.0258 1.975,-0.0291 2.9627,-0.0238 z"
       id="path140"
       inkscape:connector-curvature="0"
       style="clip-rule:evenodd;opacity:0.5;fill:#89c5cc;fill-rule:evenodd" />
    <path
       d="m 104.27,28.0465 c -1.171,0.3164 -3.764,0.1066 -4.241,0.1068 -0.8659,3e-4 -5.5669,0.5568 -5.5747,-0.4447 -6e-4,-0.0776 0.0247,-0.1473 0.0721,-0.2096 -0.1297,-0.1324 -0.2465,-0.3268 -0.3215,-0.5695 -0.2691,-0.8708 -0.2945,-1.8106 -0.3145,-2.7137 -0.043,-1.9498 -0.021,-3.9031 -0.0334,-5.8536 v 0.0587 c -0.1746,-0.2351 -0.0706,-0.5038 0.1477,-0.6913 0.5903,-0.5066 2.2909,-0.378 3.0401,-0.4177 1.0782,-0.057 2.1572,-0.0701 3.2372,-0.0741 1.143,-0.0058 2.288,0.0148 3.43,0.0499 0.424,0.013 3.371,0.0872 2.054,0.8018 -0.075,0.0409 -0.16,0.075 -0.253,0.1034 0.055,0.3245 0.061,0.6599 0.053,0.8215 -0.056,1.0276 -0.08,2.057 -0.126,3.0851 -0.051,1.1476 -0.099,2.295 -0.139,3.4431 -0.021,0.6069 0.187,2.0181 -0.293,2.4562 -0.324,0.2955 -0.545,0.2362 -0.694,0.0355 z m -1.941,-9.8285 c -1.102,-10e-5 -2.203,-0.0125 -3.3052,0.0093 -1.1902,0.0236 -2.3932,0.0375 -3.575,0.1945 -0.0648,0.0086 -0.1427,0.0253 -0.2289,0.0454 0.1802,0.7524 -0.0383,1.9628 -0.039,2.66 -0.0022,1.9536 0.0697,3.8967 0.1135,5.84 0.0014,0.0638 -10e-5,0.123 -0.0042,0.1778 1.3112,-0.2803 3.7566,-0.0932 4.2711,-0.0951 0.9587,-0.0037 1.9167,0.0096 2.8747,0.0479 0.298,0.0119 1.028,-0.0456 1.604,0.0183 -0.005,-0.0523 -0.008,-0.0999 -0.01,-0.1411 -0.053,-1.0334 0.004,-2.0776 0.038,-3.1111 0.033,-1.0416 0.085,-2.0824 0.125,-3.1238 0.02,-0.5356 -0.115,-1.6538 0.032,-2.4247 -0.696,-0.0132 -1.426,-0.0973 -1.896,-0.0974 z"
       id="path142"
       inkscape:connector-curvature="0"
       style="clip-rule:evenodd;opacity:0.5;fill:#89c5cc;fill-rule:evenodd" />
    <path
       d="m 83.4616,27.8759 c -0.7086,0.4139 -0.3265,2.0698 -0.081,2.6425 0.4036,0.9417 1.2225,1.6785 2.106,2.1674 1.7859,0.9879 4.3603,0.7255 5.7109,2.4383 0.014,0.0177 0.4809,0.4799 0.5872,-0.1186 0.0872,-0.4912 -0.7844,-1.2414 -1.1221,-1.4877 -0.9604,-0.7001 -2.1922,-0.9259 -3.3031,-1.2757 -1.1847,-0.373 -2.4849,-1.0607 -2.9816,-2.282 -0.1759,-0.4326 0.1594,-2.7157 -0.9163,-2.0842 z"
       id="path144"
       inkscape:connector-curvature="0"
       style="clip-rule:evenodd;opacity:0.5;fill:#c1dee2;fill-rule:evenodd" />
    <path
       d="m 99.6606,28.6719 c -0.6493,0.1791 -0.2199,1.0726 -0.2209,1.52 -0.0013,0.5581 -0.1797,1.1423 -0.5237,1.5877 -0.8723,1.1296 -2.5804,1.2989 -3.861,1.6227 -0.9299,0.2354 -3.1546,0.7399 -3.2417,1.9975 -0.0972,1.4044 1.8669,-0.3047 2.0328,-0.3747 1.8358,-0.6734 4.2108,-0.8035 5.6277,-2.2858 0.5852,-0.6118 0.9302,-1.4285 0.9852,-2.2714 0.031,-0.4745 0.037,-2.0241 -0.7984,-1.796 z"
       id="path146"
       inkscape:connector-curvature="0"
       style="clip-rule:evenodd;opacity:0.5;fill:#c1dee2;fill-rule:evenodd" />
    <path
       d="m 90.9634,36.3673 c 2.7028,-0.712 5.2203,1.1818 5.5389,3.906 0.3362,2.8749 -1.8305,5.1894 -4.6881,5.3163 -2.5136,0.1116 -5.5548,-1.6881 -5.571,-4.4608 -0.015,-2.5984 2.4716,-4.1702 4.7202,-4.7615 z m 1.3173,1.2494 c 0.1461,0.1988 0.278,0.5159 -0.0165,0.6886 -0.4623,0.2694 -0.547,-0.4295 -0.8742,-0.5218 -0.3286,-0.0925 -0.8566,0.253 -1.1303,0.4545 -0.4646,0.3422 -1.7518,2.334 -2.3757,1.2523 -1.8932,3.2693 2.8268,5.7159 5.5107,4.4787 2.9478,-1.3588 2.374,-6.3264 -1.114,-6.3523 z"
       id="path148"
       inkscape:connector-curvature="0"
       style="clip-rule:evenodd;opacity:0.5;fill:#89c5cc;fill-rule:evenodd" />
    <path
       d="m 89.8069,40.2586 c 0,0.5964 0.9418,0.5964 0.9418,0 0,-0.5896 -0.9418,-0.6149 -0.9418,0 z"
       id="path150"
       inkscape:connector-curvature="0"
       style="clip-rule:evenodd;opacity:0.5;fill:#89c5cc;fill-rule:evenodd" />
    <path
       d="m 91.4639,40.147 c 0,0.7306 1.1542,0.7306 1.1542,0 0,-0.7223 -1.1542,-0.7531 -1.1542,0 z"
       id="path152"
       inkscape:connector-curvature="0"
       style="clip-rule:evenodd;opacity:0.5;fill:#89c5cc;fill-rule:evenodd" />
    <path
       d="m 90.278,41.8492 c -0.9439,0.5552 1.7555,1.6584 1.8621,0.5311 0.046,-0.4864 -0.4251,-0.3552 -0.7391,-0.391 -0.3004,-0.0343 -0.838,-0.306 -1.123,-0.1401 z"
       id="path154"
       inkscape:connector-curvature="0"
       style="clip-rule:evenodd;opacity:0.5;fill:#89c5cc;fill-rule:evenodd" />
    <path
       d="m 89.8685,45.7885 c 0.0411,1.4181 0.0214,2.8354 0.2903,4.2338 0.0511,0.2655 0.0866,1.2289 0.2965,1.4262 0.5164,0.4853 0.5249,-0.4449 0.5449,-0.8014 0.0717,-1.2768 -0.0623,-2.5934 -0.092,-3.8729 -0.0064,-0.2754 0.0666,-0.8458 -0.0634,-1.1124 -0.2062,-0.4232 -0.9963,-0.5488 -0.9763,0.1267 z"
       id="path156"
       inkscape:connector-curvature="0"
       style="clip-rule:evenodd;opacity:0.5;fill:#c1dee2;fill-rule:evenodd" />
    <path
       d="m 88.8592,44.6386 c -2.0694,2.3226 -4.9189,2.1515 -7.7897,2.3549 -1.5168,0.1075 -3.0505,0.3281 -4.271,1.3092 -0.5677,0.4565 -1.0572,1.0281 -1.3861,1.6796 -0.1437,0.2849 -0.8257,1.9282 0.1985,1.5383 0.3632,-0.1382 0.7208,-1.225 0.9557,-1.5465 0.4475,-0.6122 1.02,-1.1176 1.7067,-1.4462 1.3249,-0.6338 2.9067,-0.623 4.3432,-0.7034 1.5015,-0.084 3.1132,-0.1626 4.4935,-0.8155 0.6493,-0.3072 1.2584,-0.6903 1.781,-1.1839 0.1867,-0.1765 0.5871,-0.4763 0.6169,-0.7461 0.0341,-0.3085 -0.2623,-0.8731 -0.6487,-0.4404 z"
       id="path158"
       inkscape:connector-curvature="0"
       style="clip-rule:evenodd;opacity:0.5;fill:#c1dee2;fill-rule:evenodd" />
    <path
       d="m 78.4126,51.7671 c -1.9439,0.0649 -3.8852,0.1436 -5.8263,0.2665 -0.3978,0.0251 -1.7241,-0.0552 -1.3863,0.7599 0.2708,0.6534 1.8882,0.2212 2.4233,0.1895 2.0227,-0.1201 4.0537,-0.1618 6.0721,-0.3438 0.4534,-0.0408 2.5029,-0.0245 1.6567,-0.8281 -0.4027,-0.3825 -2.3833,-0.063 -2.9395,-0.044 z"
       id="path160"
       inkscape:connector-curvature="0"
       style="clip-rule:evenodd;opacity:0.5;fill:#89c5cc;fill-rule:evenodd" />
    <path
       d="m 69.9658,52.7048 c -0.6128,0.8047 -0.3312,2.7605 -0.2849,3.7279 0.0448,0.9375 -0.1373,2.6515 1.0864,2.7969 -0.3885,-0.051 0.295,0.0236 0.4062,0.0296 0.2484,0.0133 0.4981,0.0176 0.7468,0.0203 0.5748,0.0063 1.1498,-0.0013 1.7244,-0.0129 1.3017,-0.026 2.6068,-0.0638 3.9068,-0.1358 0.5465,-0.0303 3.5111,-0.005 3.6285,-0.5727 0.1499,-0.7254 -2.6925,-0.3151 -3.2013,-0.2919 -1.2392,0.0569 -2.4803,0.0688 -3.7206,0.0851 -0.6148,0.0081 -1.2301,0.0141 -1.8449,0.0021 -0.2538,-0.005 -1.259,0.0993 -1.4133,-0.0701 -0.1316,-0.1442 -0.0289,-1.4696 -0.0317,-1.6723 -0.009,-0.6609 -0.0083,-1.3234 0.0152,-1.9841 0.0159,-0.4447 0.2564,-1.291 0.0604,-1.7088 -0.1906,-0.4062 -0.7461,-0.5448 -1.078,-0.2133 z"
       id="path162"
       inkscape:connector-curvature="0"
       style="clip-rule:evenodd;opacity:0.5;fill:#89c5cc;fill-rule:evenodd" />
    <path
       d="m 79.9749,52.7429 c 0.0355,1.4722 0.0465,2.9741 0.3942,4.4138 0.1157,0.4792 0.2778,1.4672 0.7592,1.7152 0.5052,0.2604 0.9414,-0.1112 0.9744,-0.6118 0.0416,-0.6294 -0.2954,-1.4556 -0.3645,-2.1013 -0.0808,-0.7534 -0.1277,-1.5076 -0.1553,-2.2647 -0.0209,-0.5693 0.1521,-1.423 -0.3907,-1.7902 -0.4875,-0.3298 -1.2332,0.0023 -1.2173,0.639 z"
       id="path164"
       inkscape:connector-curvature="0"
       style="clip-rule:evenodd;opacity:0.5;fill:#89c5cc;fill-rule:evenodd" />
    <path
       d="m 83.8432,52.3829 c -0.6046,0.6022 -0.3344,2.5088 -0.2588,3.2826 0.0554,0.5667 0.6757,3.3546 1.6051,1.9008 0.4112,-0.6431 -0.1112,-2.3435 -0.1075,-3.0934 0.0024,-0.4776 0.1715,-1.0814 0.0899,-1.5403 -0.1078,-0.6064 -0.7803,-1.0974 -1.3287,-0.5497 z"
       id="path166"
       inkscape:connector-curvature="0"
       style="clip-rule:evenodd;opacity:0.5;fill:#89c5cc;fill-rule:evenodd" />
    <path
       d="m 93.4889,51.5405 c 1.233,-0.0096 3.3431,-0.1147 4.2496,0.8969 0.5445,0.6074 0.7355,1.6081 0.948,2.3661 0.1632,0.5821 0.6058,1.6318 0.2913,2.2331 -0.1423,0.272 -0.3714,0.504 -0.7191,0.4076 -0.0817,-0.0226 -0.1457,-0.0516 -0.1957,-0.0858 0.1339,0.1441 0.1932,0.3497 0.1066,0.5509 -0.2078,0.4824 -0.9726,0.3783 -1.3881,0.4129 -1.3863,0.1156 -2.7791,0.1927 -4.1704,0.2048 -1.3442,0.0119 -2.6889,-0.0226 -4.033,-0.0094 -1.1198,0.011 -2.2863,0.2379 -3.3957,0.1924 -0.4632,-0.0191 -0.9578,-0.1707 -0.8404,-0.7693 0.104,-0.5311 0.6384,-0.5353 1.0741,-0.5797 1.3124,-0.1336 2.6256,-0.1809 3.9448,-0.1762 2.7712,0.0097 5.5402,-0.0047 8.3113,-0.0192 0.1143,0.0095 0.222,0.0533 0.3105,0.12 -0.146,-0.1759 -0.0761,-0.4368 -0.1032,-0.6915 -0.0729,-0.6856 -0.1198,-1.3594 -0.2498,-2.0448 -0.104,-0.5483 -0.1823,-1.4796 -0.6903,-1.8245 -0.5546,-0.3767 -1.786,-0.2521 -2.448,-0.2692 -1.7812,-0.0459 -3.5726,0.0806 -5.3457,0.2418 -0.8086,0.0735 -1.6271,0.1295 -2.4266,0.2746 -0.4451,0.081 -1.7512,0.7345 -2.1068,0.3324 -0.8561,-0.9683 2.9061,-1.3659 3.4168,-1.4186 1.8159,-0.1874 3.6339,-0.3279 5.4598,-0.3453 z"
       id="path168"
       inkscape:connector-curvature="0"
       style="clip-rule:evenodd;opacity:0.5;fill:#89c5cc;fill-rule:evenodd" />
    <path
       d="m 107.348,49.6811 c 0.079,0.1016 0.079,0.1016 0,0 z M 95.0596,43.6823 c -1.1028,0.6482 0.9384,2.5503 1.4583,2.8445 1.1701,0.662 2.778,0.7618 4.0841,0.948 1.654,0.2357 3.453,0.3225 5.042,0.8644 0.678,0.2309 1.108,0.5911 1.551,1.1449 0.225,0.2805 0.766,1.4898 1.258,1.2035 0.992,-0.5765 -1.68,-2.9958 -2.269,-3.2559 -1.339,-0.5914 -2.921,-0.757 -4.353,-0.9866 -1.33,-0.2136 -2.69,-0.3724 -3.9881,-0.7489 -0.7137,-0.207 -1.221,-0.5409 -1.6325,-1.1801 -0.2564,-0.3983 -0.4667,-1.234 -1.1508,-0.8338 z"
       id="path170"
       inkscape:connector-curvature="0"
       style="clip-rule:evenodd;opacity:0.5;fill:#c1dee2;fill-rule:evenodd" />
    <path
       d="m 111.966,51.1121 c 0.594,-0.0124 1.39,-0.066 1.865,0.3724 0.54,0.4992 0.648,1.7376 0.81,2.4048 0.176,0.7245 0.386,1.4618 0.46,2.2052 0.017,0.1742 0.064,0.4734 0.043,0.7425 0.247,0.0334 0.395,0.2731 0.37,0.535 -0.046,0.4861 -0.72,0.5524 -1.114,0.6292 -1.31,0.2559 -2.711,0.1977 -4.039,0.2353 -2.779,0.0782 -5.751,0.5271 -8.519,0.2599 -0.476,-0.046 -0.987,-0.2145 -0.864,-0.8174 l -0.002,0.0071 c -0.329,-0.6323 -0.481,-1.8472 -0.511,-2.0871 -0.126,-1.0336 -0.136,-2.0551 -0.119,-3.0952 0.011,-0.571 0.664,-0.8433 1.088,-0.5227 0.566,-0.2373 1.524,-0.2729 2.039,-0.3249 0.846,-0.0855 1.7,-0.1173 2.548,-0.168 1.982,-0.1185 3.961,-0.3321 5.945,-0.3761 z m 1.454,1.4073 c -0.299,-0.6977 -0.559,-0.5363 -1.337,-0.4835 -0.8,0.0543 -1.6,0.1307 -2.399,0.1964 -1.757,0.1446 -3.516,0.236 -5.275,0.3585 -0.938,0.0653 -1.835,0.3392 -2.754,0.4345 l 0.077,-0.0093 c -0.013,0.3187 -0.058,0.6403 -0.053,0.8729 0.011,0.4896 0.048,0.9767 0.09,1.4638 l 0.052,0.5846 c 0.024,0.2776 0.139,0.7568 0.156,1.1768 0.11,-9e-4 0.219,0.0011 0.32,-6e-4 1.398,-0.0245 2.794,-0.0668 4.191,-0.1205 1.424,-0.0547 2.849,-0.1157 4.274,-0.1321 1.134,-0.0129 2.301,0.085 3.442,0.0409 -0.246,-0.6418 -0.208,-1.6533 -0.339,-2.3186 -0.13,-0.6604 -0.18,-1.4436 -0.445,-2.0638 z"
       id="path172"
       inkscape:connector-curvature="0"
       style="clip-rule:evenodd;opacity:0.5;fill:#89c5cc;fill-rule:evenodd" />
  </g>
  <path
     d="m 85.0331,32.4354 c -1.3149,2.4829 -1.1587,8.781 0.5408,9.2248 0.6777,0.1769 2.1214,-0.2565 3.5908,-1.1537 l -0.9222,6.6101 h 5.446 L 91.8138,38.264 c 1.0455,-1.2433 1.7531,-2.767 1.6349,-4.4743 -0.3408,-4.9194 -7.1006,-3.8372 -8.4156,-1.3543 z"
     id="path176"
     inkscape:connector-curvature="0"
     style="clip-rule:evenodd;fill:#915b3c;fill-rule:evenodd" />
  <path
     d="m 93.0455,32.5299 c -1.2417,-5.1684 -8.2679,-1.9595 -9.6198,-2.8316 -0.2956,1.8765 0.6576,3.3896 4.0086,3.0973 0.7395,0.4185 1.2655,1.2033 1.8987,2.2328 0.1541,-0.0614 0.3221,-0.0951 0.4978,-0.0951 0.752,0 1.3615,0.6175 1.3615,1.3792 0,0.3866 -0.157,0.7361 -0.4099,0.9865 0.3146,0.4505 0.6678,0.9211 1.0724,1.4068 1.5083,-0.9167 2.6305,-3.5867 1.1954,-6.1661 z"
     id="path178"
     inkscape:connector-curvature="0"
     style="clip-rule:evenodd;fill:#191847;fill-rule:evenodd" />
  <path
     d="M 95.5037,66.1961 87.1915,95.2125 83.2819,116.998 H 79.3578 L 83.2749,66.1961 Z"
     id="path180"
     inkscape:connector-curvature="0"
     style="clip-rule:evenodd;fill:#915b3c;fill-rule:evenodd" />
  <path
     d="M 95.5037,66.1961 87.1915,95.2125 83.2819,116.998 H 79.3578 L 83.2749,66.1961 Z"
     id="path182"
     inkscape:connector-curvature="0"
     style="clip-rule:evenodd;fill:#000000;fill-opacity:0.1;fill-rule:evenodd" />
  <path
     d="m 99.2392,66.1961 c -0.58,15.0739 -0.3512,23.2956 -0.2214,24.6651 0.1298,1.3695 0.8667,10.5418 5.8882,26.5968 h -4.081 C 94.1744,102.056 91.8528,92.8837 91.0901,90.8612 90.3273,88.8387 88.0746,80.617 84.7857,66.1961 Z"
     id="path184"
     inkscape:connector-curvature="0"
     style="clip-rule:evenodd;fill:#915b3c;fill-rule:evenodd" />
  <path
     d="M 95.6821,66.1961 C 93.52,76.1807 89.7805,92.1187 84.4635,114.01 H 78.7241 C 78.3002,91.5407 80.1035,76.7521 83.2265,66.1961 Z"
     id="path186"
     inkscape:connector-curvature="0"
     style="clip-rule:evenodd;fill:#69a1ac;fill-rule:evenodd" />
  <path
     d="m 99.2684,66.1961 c -0.568,15.0739 0.9036,29.9245 5.4636,48.0489 H 98.6088 C 91.9461,99.0723 87.1708,84.295 83.9072,66.1961 Z"
     id="path188"
     inkscape:connector-curvature="0"
     style="clip-rule:evenodd;fill:#89c5cc;fill-rule:evenodd" />
  <path
     d="m 105.488,120.446 -0.225,-3.678 c -1.319,0.391 -2.97,0.238 -4.954,-0.459 -2.1342,1.531 -4.8202,2.576 -8.0586,3.136 -0.2471,0.043 -0.4132,0.28 -0.371,0.531 0.0027,0.016 0.0063,0.032 0.0107,0.048 l 0.3113,1.112 h 8.1076 4.729 z"
     id="path190"
     inkscape:connector-curvature="0"
     style="clip-rule:evenodd;fill:#191847;fill-rule:evenodd" />
  <path
     d="m 84.158,120.446 -0.2252,-3.678 c -1.3185,0.391 -2.97,0.238 -4.9544,-0.459 -2.1337,1.531 -4.8197,2.576 -8.0581,3.136 -0.2471,0.043 -0.4132,0.28 -0.371,0.531 0.0027,0.016 0.0063,0.032 0.0107,0.048 l 0.3114,1.112 h 8.107 4.7292 z"
     id="path192"
     inkscape:connector-curvature="0"
     style="clip-rule:evenodd;fill:#191847;fill-rule:evenodd" />
  <path
     d="m 104.057,63.4427 -4.7424,0.0189 c 2.9284,9.5751 4.5084,14.6556 4.7424,15.2415 0.525,1.3182 -0.586,3.3258 -1.062,4.4047 1.548,0.7015 1.383,-1.8965 3.335,-0.9764 1.782,0.8398 3.138,2.3615 5.196,1.0746 0.254,-0.1582 0.531,-0.7539 -0.139,-1.2194 -1.67,-1.1597 -4.076,-3.1895 -4.401,-3.8576 -0.443,-0.9111 -1.42,-5.8065 -2.929,-14.6863 z m -27.7916,-0.1859 -7.2382,5.3845 c -1.9631,0.5367 -3.6033,1.2043 -4.9204,2.003 -0.3112,0.2872 -0.6872,0.8689 0.6031,0.7684 1.2904,-0.1006 2.6521,-0.1475 2.8301,0.2983 0.1781,0.4459 -0.6028,0.9791 -0.2429,1.5807 0.24,0.401 1.3735,-0.6046 3.4007,-3.0169 l 7.1677,-3.011 z"
     id="path194"
     inkscape:connector-curvature="0"
     style="clip-rule:evenodd;fill:#915b3c;fill-rule:evenodd" />
  <path
     d="M 90.5807,43.286 88.6186,42.9451 C 81.3383,49.3162 78.3481,61.5558 69.4243,68.0396 l 2.1479,2.6971 C 87.0533,68.7949 90.8904,53.8655 90.5807,43.286 Z"
     id="path196"
     inkscape:connector-curvature="0"
     style="clip-rule:evenodd;fill:#e87613;fill-rule:evenodd" />
  <path
     d="m 99.1343,68.2649 c -7.8676,0 -13.6548,0 -17.3617,0 -0.7934,0 -0.6439,-1.1605 -0.5292,-1.746 1.3236,-6.7585 6.4903,-14.0437 6.4903,-23.6642 l 5.0079,-0.7955 c 4.1422,6.7488 5.5747,15.0579 6.3927,26.2057 z"
     id="path198"
     inkscape:connector-curvature="0"
     style="clip-rule:evenodd;fill:#dde3e9;fill-rule:evenodd" />
  <path
     d="m 93.1188,42.0598 c -0.1691,0 -0.3241,0.0107 -0.4648,0.0322 l -1.5687,0.0907 c -4.498,15.4431 -5.7386,25.7465 -3.7216,30.9102 l 13.6653,4e-4 c 0.809,1.9123 1.584,3.5214 2.324,4.827 h 3.723 c 0.351,-11.4784 -2.343,-21.2207 -8.0812,-29.2269 0.7273,-0.2116 1.3032,-0.7056 1.7282,-1.4818 1.83,-3.3459 1.169,-5.188 -0.787,-5.7935 -1.9561,-0.6056 -3.7006,0.6417 -6.8172,0.6417 z"
     id="path200"
     inkscape:connector-curvature="0"
     style="clip-rule:evenodd;fill:#ff9b21;fill-rule:evenodd" />
  <path
     d="m 95.9576,73.0927 5.0714,1e-4 c -0.945,-2.2309 -1.9365,-4.8746 -2.9758,-7.9312 -0.4298,3.6424 -1.1283,6.2862 -2.0956,7.9311 z"
     id="path202"
     inkscape:connector-curvature="0"
     style="clip-rule:evenodd;fill:#000000;fill-opacity:0.1;fill-rule:evenodd" />
  <path
     d="m 41.4499,69.82 c 2.14,0 2.9183,-2.5309 4.1341,-3.9198 0.8699,-0.9937 2.3545,-0.6974 2.794,-2.0886 1.105,-3.4983 -1.8526,-5.9605 -5.711,-5.9605 -3.8584,0 -6.4599,2.1594 -7.0216,5.4056 -0.5618,3.2461 1.9462,6.5633 5.8045,6.5633 z"
     id="path204"
     inkscape:connector-curvature="0"
     style="clip-rule:evenodd;fill:#191847;fill-rule:evenodd" />
  <path
     d="m 47.2813,62.8706 c 1.085,1.9979 0.9561,7.0657 -0.4462,7.4228 -0.5593,0.1424 -1.7506,-0.2064 -2.9631,-0.9284 l 0.761,5.319 h -4.4938 l 1.5469,-7.1234 c -0.8627,-1.0005 -1.4466,-2.2265 -1.3491,-3.6003 0.2812,-3.9585 5.8592,-3.0877 6.9443,-1.0897 z"
     id="path206"
     inkscape:connector-curvature="0"
     style="clip-rule:evenodd;fill:#d4a181;fill-rule:evenodd" />
  <path
     d="m 47.5508,62.8815 c -0.8594,0.1594 -2.5903,0.9699 -3.9703,2.1326 -0.1632,-0.0854 -0.3503,-0.1339 -0.5491,-0.1339 -0.6367,0 -1.1528,0.4969 -1.1528,1.1098 0,0.2502 0.086,0.481 0.231,0.6667 -0.2731,0.4448 -0.4596,0.912 -0.5207,1.3924 -0.9467,0 -4.402,-3.5388 -0.9598,-6.8683 3.4421,-3.3295 8.4164,1.4235 6.9217,1.7007 z"
     id="path208"
     inkscape:connector-curvature="0"
     style="clip-rule:evenodd;fill:#191847;fill-rule:evenodd" />
  <path
     d="M 32.0171,97.8035 H 46.4826 L 48.3781,120.74 H 26.845 Z"
     id="path210"
     inkscape:connector-curvature="0"
     style="clip-rule:evenodd;fill:#c5cfd6;fill-rule:evenodd" />
  <path
     d="m 32.0172,97.8035 h 4.4489 L 39.1289,120.74 H 26.845 Z"
     id="path212"
     inkscape:connector-curvature="0"
     style="clip-rule:evenodd;fill:#000000;fill-opacity:0.1;fill-rule:evenodd" />
  <path
     d="m 70.6896,119.817 c -3.6917,-4.453 -6.1895,-7.755 -7.4936,-9.904 -2.2329,-3.681 -4.0604,-6.956 -4.6371,-8.207 -1.3753,-2.9838 3.166,-4.3808 4.1938,-2.9893 1.5557,2.1063 4.8779,8.7343 9.9668,19.8833 z"
     id="path214"
     inkscape:connector-curvature="0"
     style="clip-rule:evenodd;fill:#d4a181;fill-rule:evenodd" />
  <path
     d="m 63.1251,118.521 -6.8705,-17.085 c -1.4694,-3.1142 5.6268,-5.1613 6.7067,-3.712 2.4518,3.291 8.2791,16.271 9.0096,17.252 z"
     id="path216"
     inkscape:connector-curvature="0"
     style="clip-rule:evenodd;fill:#2f3676;fill-rule:evenodd" />
  <path
     d="m 44.8267,115.095 c 1.3383,-1.929 6.2063,-8.417 8.8578,-11.102 0.7619,-0.771 1.5053,-1.511 2.2085,-2.201 2.09,-2.0513 6.252,1.396 4.1658,3.264 -5.1954,4.652 -12.7758,10.932 -13.4092,11.492 -0.8877,0.785 -2.664,-0.241 -1.8229,-1.453 z"
     id="path218"
     inkscape:connector-curvature="0"
     style="clip-rule:evenodd;fill:#d4a181;fill-rule:evenodd" />
  <path
     d="m 45.1394,114.223 c -0.461,0.375 -0.7609,0.681 -0.8998,0.919 -0.1688,0.288 -0.3664,0.738 -0.5929,1.348 0.3392,0.193 3.3879,1.932 9.146,5.216 0.6913,-0.641 0.799,-1.138 0.3231,-1.492 -0.4759,-0.354 -0.8686,-0.652 -1.1781,-0.896 l -3.1569,-4.296 c -0.0607,-0.083 -0.1778,-0.101 -0.2615,-0.041 -0.0014,0.001 -0.0028,0.002 -0.0042,0.003 l -0.656,0.499 c -0.6017,-0.052 -1.0508,-0.162 -1.3471,-0.331 -0.2408,-0.138 -0.5172,-0.424 -0.8292,-0.858 v 0 c -0.1198,-0.166 -0.3535,-0.205 -0.5222,-0.087 -0.0072,0.005 -0.0143,0.01 -0.0212,0.016 z"
     id="path220"
     inkscape:connector-curvature="0"
     style="clip-rule:evenodd;fill:#e4e4e4;fill-rule:evenodd" />
  <path
     d="m 69.1018,119.151 c -0.2095,0.552 -0.3142,0.966 -0.3142,1.24 0,0.334 0.0562,0.82 0.1687,1.46 0.3918,0 3.9121,0 10.561,0 0.2744,-0.896 0.116,-1.38 -0.4753,-1.451 -0.5913,-0.072 -1.0825,-0.136 -1.4736,-0.194 l -4.9086,-2.162 c -0.0944,-0.041 -0.2052,0.001 -0.2473,0.094 -7e-4,10e-4 -0.0014,0.003 -0.002,0.005 l -0.3156,0.756 c -0.5473,0.252 -0.9921,0.378 -1.3344,0.378 -0.278,0 -0.662,-0.111 -1.1519,-0.333 v 0 c -0.188,-0.085 -0.4103,-0.003 -0.4965,0.183 -0.0037,0.008 -0.0072,0.016 -0.0103,0.024 z"
     id="path222"
     inkscape:connector-curvature="0"
     style="clip-rule:evenodd;fill:#e4e4e4;fill-rule:evenodd" />
  <path
     d="m 53.7821,102.289 c -5.7103,-0.919 -9.5352,-1.547 -11.4746,-1.885 -5.528,-0.9626 -7.1401,-3.9013 -6.1869,-10.313 h 10.1853 c 1.3478,0.3845 6.9797,2.7626 16.8956,7.1343 1.7841,0.8749 1.4518,3.4547 1.1257,4.3047 -0.0133,0.034 -3.0209,5.125 -9.0228,15.273 l -8.332,-5.244 6.8254,-8.652 c 0.1802,-0.358 0.175,-0.564 -0.0157,-0.618 z"
     id="path224"
     inkscape:connector-curvature="0"
     style="clip-rule:evenodd;fill:#5c63ab;fill-rule:evenodd" />
  <path
     d="m 28.8422,84.9559 3.3164,0.4758 c -3.5598,7.63 -5.4683,11.6652 -5.7255,12.1056 -0.5784,0.9908 0.1019,2.7167 0.3679,3.6307 -1.3441,0.383 -0.9149,-1.6685 -2.6144,-1.157 -1.5513,0.467 -2.8314,1.526 -4.3678,0.267 -0.1889,-0.155 -0.348,-0.661 0.2524,-0.9559 1.4957,-0.7347 3.6918,-2.0791 4.0332,-2.5746 0.4656,-0.6757 2.0448,-4.6062 4.7378,-11.7916 z m 25.5947,2.0484 5.6523,4.7338 c 1.5855,0.5424 2.8977,1.1716 3.9365,1.8876 0.2398,0.2482 0.5163,0.7365 -0.5401,0.5824 -1.0565,-0.154 -2.1747,-0.2692 -2.3466,0.0786 -0.1719,0.3478 0.4405,0.8202 0.1101,1.2826 -0.2203,0.3083 -1.0962,-0.5634 -2.6278,-2.615 l -5.7292,-2.8246 z"
     id="path226"
     inkscape:connector-curvature="0"
     style="clip-rule:evenodd;fill:#d4a181;fill-rule:evenodd" />
  <path
     d="m 42.7034,71.5997 2.0554,-0.6719 c 2.7854,6.8778 6.9407,13.5319 13.8854,19.1513 l -1.7188,2.9278 c -6.1038,-3.5501 -11.882,-6.3076 -14.2253,-11.6371 -0.7865,-1.7887 -0.0616,-7.631 0.0033,-9.7701 z"
     id="path228"
     inkscape:connector-curvature="0"
     style="clip-rule:evenodd;fill:#c5cfd6;fill-rule:evenodd" />
  <path
     d="m 35.6453,90.9623 c 5.8866,0.6166 10.52,0.6166 13.9003,0 0.4187,-0.0764 0.4848,-0.769 0.2906,-1.2391 -3.0244,-7.3206 -5.0983,-13.7082 -5.0983,-18.7928 -0.5549,0.2763 -1.5261,0.3178 -2.9136,0.1242 -3.7287,5.2399 -5.4427,11.2522 -6.179,19.9077 z"
     id="path230"
     inkscape:connector-curvature="0"
     style="clip-rule:evenodd;fill:#323337;fill-rule:evenodd" />
  <path
     d="m 40.9028,70.5188 -0.0054,0.0958 1.5539,1e-4 c 0.3582,2.0812 1.4803,30.0023 4.9211,39.5963 l 0.105,0.285 H 28.4149 c 0.4133,-8.531 3.6733,-18.7782 6.9756,-27.3533 -2.9201,2.6397 -5.4652,7.1126 -7.6353,13.4185 l -3.5706,-0.9054 c 2.6548,-11.3009 8.113,-19.6072 16.3747,-24.9189 l 0.0539,-0.1222 0.1382,-1e-4 z"
     id="path232"
     inkscape:connector-curvature="0"
     style="clip-rule:evenodd;fill:#dde3e9;fill-rule:evenodd" />
</svg>
