<svg width="96" height="64" viewBox="0 0 96 64" fill="none" xmlns="http://www.w3.org/2000/svg">
<g clip-path="url(#clip0)">
<path fill-rule="evenodd" clip-rule="evenodd" d="M65.1389 12.1134C63.1555 15.8102 63.3912 25.1874 65.9545 25.8481C66.9767 26.1116 69.1543 25.4662 71.3706 24.1304L69.9796 33.9722H78.1938L75.3662 20.7915C76.9432 18.9404 78.0105 16.6718 77.8322 14.1298C77.3182 6.80526 67.1222 8.41657 65.1389 12.1134Z" fill="#B28B67"/>
<path fill-rule="evenodd" clip-rule="evenodd" d="M69.5922 8.51492C67.2874 8.7126 65.2294 9.41538 64.6461 9.83275C64.6461 12.0147 65.0689 12.6621 68.6801 12.6051C69.5674 13.0736 70.2495 13.8805 70.9599 14.9382C70.6458 19.3183 69.814 21.5086 68.4649 21.5086C66.4411 21.5086 64.7242 20.2238 63.8362 20.2238C63.1889 20.2238 63.3334 21.0339 63.7625 21.6344C64.1165 22.1299 65.8404 22.6075 65.8404 23.3757C65.8404 24.1439 64.4783 23.5496 64.4783 24.0052C64.4783 24.7588 64.239 26.1757 65.5469 26.1757C66.8707 26.1757 70.666 25.6933 71.3164 23.7287C71.7361 22.4609 72.0075 19.8337 72.1306 15.8473C72.2107 15.8372 72.2925 15.8323 72.3755 15.8323C73.5096 15.8323 74.429 16.7517 74.429 17.8858C74.429 18.4616 74.1921 18.982 73.8104 19.3549C74.2856 20.0256 74.8181 20.7262 75.4283 21.4492C77.7208 20.0738 79.4219 16.0475 77.1806 12.1797C76.5612 10.285 75.1587 9.27291 73.5024 8.80298C72.1607 8.24174 70.7679 8.17846 69.5922 8.51492Z" fill="#191847"/>
<path fill-rule="evenodd" clip-rule="evenodd" d="M80.9316 62.3798L68.3943 105.582L62.4974 138.019H56.5787L62.4869 62.3798H80.9316Z" fill="#B28B67"/>
<path fill-rule="evenodd" clip-rule="evenodd" d="M80.9316 62.3798L68.3943 105.582L62.4974 138.019H56.5787L62.4869 62.3798H80.9316Z" fill="black" fill-opacity="0.1"/>
<path fill-rule="evenodd" clip-rule="evenodd" d="M86.5661 62.3798C85.6913 84.8233 86.0363 97.0646 86.2321 99.1036C86.4279 101.143 87.5395 114.799 95.1138 138.704H88.9578C78.9268 115.771 75.4251 102.115 74.2747 99.1036C73.1242 96.0923 69.7263 83.851 64.7656 62.3798H86.5661Z" fill="#B28B67"/>
<path fill-rule="evenodd" clip-rule="evenodd" d="M81.2007 62.3798C77.9395 77.2459 72.2991 100.976 64.2795 133.57H55.6227C54.9833 100.115 57.7033 78.0965 62.4136 62.3798H81.2007Z" fill="#69A1AC"/>
<path fill-rule="evenodd" clip-rule="evenodd" d="M86.6101 62.3798C85.7534 84.8233 87.9737 106.934 94.8516 133.919H85.6152C75.5658 111.329 68.3631 89.3272 63.4405 62.3798H86.6101Z" fill="#89C5CC"/>
<path fill-rule="evenodd" clip-rule="evenodd" d="M93.8325 58.2795L86.6801 58.3076C91.0964 72.5641 93.4805 80.1284 93.8325 81.0008C94.6245 82.9635 92.9485 85.9526 92.2318 87.559C94.5661 88.6035 94.3174 84.7353 97.2619 86.1052C99.9496 87.3556 101.994 89.6213 105.099 87.7052C105.481 87.4697 105.899 86.5827 104.889 85.8896C102.37 84.1629 98.7414 81.1408 98.2511 80.146C97.5824 78.7895 96.1096 71.5006 93.8325 58.2795ZM50.7978 56.9456L41.1023 66.404C38.2812 67.6073 35.9698 68.936 34.1679 70.3901C33.7627 70.8789 33.3216 71.8154 35.2281 71.3963C37.1346 70.9772 39.1587 70.6222 39.5171 71.2422C39.8754 71.8622 38.8196 72.8122 39.4818 73.6237C39.9233 74.1646 41.408 72.444 43.936 68.4617L54.018 62.5176L50.7978 56.9456Z" fill="#B28B67"/>
<path fill-rule="evenodd" clip-rule="evenodd" d="M73.5065 28.2673L70.5469 27.7597C65.4515 40.4885 56.5554 52.0542 43.8587 62.4568L53.453 74.113C66.1482 59.301 73.9736 44.0191 73.5065 28.2673Z" fill="#191847"/>
<path fill-rule="evenodd" clip-rule="evenodd" d="M86.4077 65.4601H60.0536C66.1593 50.6146 69.2121 38.0035 69.2121 27.6269L77.1618 26.4424C83.4095 36.4906 85.1739 48.862 86.4077 65.4601Z" fill="#DDE3E9"/>
<path fill-rule="evenodd" clip-rule="evenodd" d="M76.8084 26.4424C76.1875 26.4638 75.2417 26.5023 73.9711 26.558L72.0502 32.0475C71.847 38.7406 70.6604 52.229 68.4903 72.5128L85.766 72.5126C85.7207 73.9136 85.646 75.3276 85.5419 76.7547H98.3872C96.4658 55.0773 89.449 38.3065 77.3368 26.4424L77.3306 26.4482L77.3273 26.4424H76.8084Z" fill="#2F3676"/>
<path fill-rule="evenodd" clip-rule="evenodd" d="M80.9319 72.6476L85.7616 72.6474C85.973 66.3647 85.5941 60.345 84.625 54.5881C84.1331 63.3206 82.9022 69.3404 80.9319 72.6476Z" fill="black" fill-opacity="0.1"/>
<path fill-rule="evenodd" clip-rule="evenodd" d="M81.9209 62.0375L73.4023 58.0773V62.0375H81.9209Z" fill="white" fill-opacity="0.2"/>
</g>
<g clip-path="url(#clip1)">
<path fill-rule="evenodd" clip-rule="evenodd" d="M32.777 18.225C34.4876 21.413 34.2844 29.4996 32.0735 30.0694C31.1919 30.2966 29.3137 29.74 27.4022 28.5881L28.6019 37.0753H21.5171L23.9559 25.7087C22.5958 24.1124 21.6752 22.156 21.8291 19.9639C22.2723 13.6474 31.0664 15.037 32.777 18.225Z" fill="#EAC7A8"/>
<path fill-rule="evenodd" clip-rule="evenodd" d="M18.7403 17.8611C18.5115 17.6344 18.3866 17.3107 18.2787 17.0034C18.1665 16.6842 18.0576 16.3617 17.9831 16.0295C17.8344 15.3656 17.833 14.6021 18.3066 14.0866C18.6865 13.6733 19.2565 13.4878 19.7825 13.4476C20.133 13.4207 20.493 13.4698 20.8289 13.5802C21.1623 13.6897 21.4496 13.9081 21.7727 14.0436C21.7851 13.3282 21.9077 12.5796 22.2707 11.9687C22.62 11.381 23.1769 11.0512 23.8111 10.9639C24.4621 10.8744 25.105 11.0267 25.6877 11.3418C25.8336 11.4207 25.9782 11.5034 26.1165 11.5969C26.2323 11.6753 26.3528 11.7697 26.4887 11.8015C26.6402 11.8371 26.7153 11.7496 26.8138 11.6391C26.9292 11.5095 27.0593 11.3954 27.1969 11.2942C27.8055 10.8469 28.6041 10.663 29.3092 10.9311C29.6341 11.0546 29.95 11.2644 30.1704 11.5535C30.3669 11.8112 30.507 12.22 30.7782 12.3995C30.8933 12.4757 30.9745 12.3747 31.0793 12.3001C31.2367 12.188 31.3868 12.0642 31.546 11.9552C31.7698 11.8019 32.012 11.6873 32.2714 11.6273C32.6511 11.5394 33.1759 11.56 33.2845 12.0573C33.3252 12.2441 33.294 12.4439 33.2808 12.6321C33.2627 12.8905 33.2439 13.1488 33.2214 13.4069C33.2044 13.6028 33.1829 13.792 33.1459 13.9844C33.1262 14.087 33.0644 14.2782 33.1084 14.3809C33.1634 14.5093 33.4171 14.4363 33.5255 14.4407C33.7395 14.4496 33.9545 14.4871 34.1524 14.5786C34.3059 14.6495 34.4671 14.7537 34.5319 14.9295C34.5717 15.0375 34.5612 15.1485 34.5424 15.2596C34.5199 15.3929 34.5456 15.4636 34.5625 15.5982C34.85 15.4566 35.8464 15.1421 35.9717 15.6573C36.0135 15.8288 35.9184 16.0227 35.8459 16.1674C35.7187 16.4211 35.552 16.653 35.3815 16.8742C35.0259 17.3356 34.6014 17.7336 34.1447 18.074C34.6798 18.3119 34.8195 19.0135 34.3561 19.4315C34.1516 19.616 33.8765 19.6571 33.6185 19.6453C33.524 19.641 33.3879 19.6047 33.3136 19.6212C33.2736 19.63 33.2308 19.6639 33.1754 19.6677C32.8112 19.6926 32.4001 19.6049 32.0441 19.5241C31.4098 19.3801 30.8092 19.0796 30.3188 18.622C30.193 18.5046 30.0891 18.437 29.9198 18.4388C29.7714 18.4403 29.6258 18.4809 29.4776 18.4847C29.0853 18.4947 28.7317 18.303 28.3675 18.1754C28.3452 18.6673 28.205 19.2092 28.0037 19.6518C27.8396 20.0127 27.4969 20.0652 27.16 20.0968C26.083 20.1981 25.0021 20.0851 23.9237 20.0866C24.9677 20.3225 26.0464 20.4197 27.0811 20.6974C27.5487 20.8228 27.1916 21.138 26.9916 21.3565C26.6624 21.7163 26.4175 22.162 26.2477 22.6317C25.737 21.9661 24.8344 21.5275 24.0347 21.732C23.1511 21.9579 22.5289 23.1526 23.0939 24.0115C23.422 24.5101 24.0143 24.7026 24.5072 24.9168C24.1227 25.3166 24.0297 25.9069 23.7983 26.4042C23.6841 26.6494 23.5239 26.9267 23.2686 27.0122C23.1742 27.0438 23.0634 27.0465 22.9889 27.1235C22.8966 27.2188 22.8747 27.3253 22.7568 27.4073C22.2865 27.7342 21.5518 27.709 21.1349 27.2824C20.7579 26.8965 20.856 26.2859 21.1709 25.8947C20.6697 25.6858 19.7566 25.4172 19.9558 24.6365C18.8697 24.5644 16.2329 22.8033 17.6905 21.5165C16.8906 21.0644 16.1557 19.9597 16.6695 18.9859C17.0652 18.2361 17.9853 17.9009 18.7403 17.8611Z" fill="#191847"/>
<path fill-rule="evenodd" clip-rule="evenodd" d="M19.1558 61.573L29.8582 99.1246L37.6669 126.802H43.3622L35.0644 61.573H19.1558Z" fill="#191847"/>
<path fill-rule="evenodd" clip-rule="evenodd" d="M16.2936 61.573C16.046 80.9275 15.2019 91.484 14.942 93.2425C14.6821 95.0009 10.752 106.187 3.15186 126.802H9.05181C18.7274 107.026 24.1286 95.8393 25.2553 93.2425C26.382 90.6456 29.8592 80.0891 35.0965 61.573H16.2936Z" fill="#2F3676"/>
<path fill-rule="evenodd" clip-rule="evenodd" d="M8.02887 58.0369L14.1978 58.0612C10.3888 70.3555 8.33246 76.8787 8.02887 77.631C7.3458 79.3236 8.79128 81.9013 9.40942 83.2866C7.39614 84.1873 7.61066 80.8515 5.07097 82.0329C2.75285 83.1112 0.989464 85.065 -1.68878 83.4127C-2.01806 83.2096 -2.37889 82.4447 -1.50708 81.847C0.664933 80.3579 3.79493 77.7517 4.21784 76.8939C4.79456 75.7241 6.0649 69.4384 8.02887 58.0369ZM44.183 57.7983L53.5994 64.7119C56.1533 65.401 58.287 66.2582 60.0005 67.2837C60.4053 67.6525 60.8944 68.3993 59.2158 68.2703C57.5372 68.1412 55.7657 68.0809 55.5341 68.6534C55.3024 69.2259 56.3183 69.9105 55.8501 70.6829C55.5379 71.1978 54.0633 69.9066 51.4261 66.8093L42.1014 62.9432L44.183 57.7983Z" fill="#EAC7A8"/>
<path fill-rule="evenodd" clip-rule="evenodd" d="M25.5598 32.1558L28.1124 31.718C37.5834 39.8984 41.4735 55.6138 53.0826 63.9389L50.2884 67.4019C30.1487 64.9086 25.1569 45.7396 25.5598 32.1558Z" fill="#E87613"/>
<path fill-rule="evenodd" clip-rule="evenodd" d="M14.4326 64.2293C24.6677 64.2293 32.1965 64.2293 37.0188 64.2293C38.0509 64.2293 37.8564 62.7393 37.7072 61.9874C35.9853 53.3097 29.2639 43.9556 29.2639 31.6031L22.7489 30.5817C17.3603 39.2469 15.4968 49.9156 14.4326 64.2293Z" fill="#DDE3E9"/>
<path fill-rule="evenodd" clip-rule="evenodd" d="M22.2582 30.5819C22.4782 30.5819 22.6798 30.5956 22.8629 30.6232L24.9036 30.7397C30.7552 50.5683 32.369 63.7977 29.7451 70.4278L11.9678 70.4282C10.9146 72.8837 9.90678 74.9496 8.94433 76.626H4.10039C3.64451 61.888 7.14904 49.3791 14.614 39.0993C13.6678 38.8276 12.9184 38.1933 12.366 37.1966C9.98478 32.9006 10.8447 30.5354 13.3895 29.7579C15.9343 28.9804 18.2037 30.5819 22.2582 30.5819Z" fill="#FF9B21"/>
<path fill-rule="evenodd" clip-rule="evenodd" d="M18.5655 70.4277L11.9683 70.4279C13.1969 67.5635 14.4872 64.169 15.8394 60.2444C16.3985 64.9211 17.3072 68.3158 18.5655 70.4277Z" fill="black" fill-opacity="0.1"/>
</g>
<defs>
<clipPath id="clip0">
<rect width="72" height="136.43" fill="white" transform="matrix(-1 0 0 1 105.75 7.75)"/>
</clipPath>
<clipPath id="clip1">
<rect width="63" height="121.245" fill="white" transform="translate(-2.25 10.8698)"/>
</clipPath>
</defs>
</svg>
