<svg width="176" height="279" viewBox="0 0 176 279" fill="none" xmlns="http://www.w3.org/2000/svg">
<path fill-rule="evenodd" clip-rule="evenodd" d="M104.959 7.95455C109.03 15.5416 108.546 34.7869 103.285 36.1429C101.187 36.6836 96.7181 35.359 92.1695 32.6175L95.0243 52.8162H78.1659L83.9691 25.765C80.7326 21.9659 78.5422 17.31 78.9082 12.093C79.9629 -2.93945 100.889 0.367485 104.959 7.95455Z" fill="#B28B67"/>
<path fill-rule="evenodd" clip-rule="evenodd" d="M95.8195 0.569887C100.55 0.975607 104.773 2.41795 105.97 3.27452C105.97 7.75269 105.103 9.08135 97.6914 8.96424C95.8704 9.92589 94.4706 11.5818 93.0126 13.7527C93.6572 22.742 95.3643 27.2372 98.1332 27.2372C102.287 27.2372 105.81 24.6005 107.633 24.6005C108.961 24.6005 108.665 26.2629 107.784 27.4955C107.058 28.5124 103.52 29.4926 103.52 31.0692C103.52 32.6458 106.315 31.4261 106.315 32.3611C106.315 33.9077 106.806 36.8158 104.122 36.8158C101.405 36.8158 93.6158 35.8257 92.2809 31.7937C91.4195 29.1916 90.8625 23.7998 90.6099 15.6183C90.4454 15.5976 90.2775 15.5875 90.1073 15.5875C87.7797 15.5875 85.8927 17.4745 85.8927 19.8021C85.8927 20.9838 86.379 22.0518 87.1624 22.8171C86.1872 24.1936 85.0943 25.6315 83.8419 27.1153C79.137 24.2925 75.6457 16.0293 80.2455 8.09134C81.5169 4.20264 84.3952 2.12555 87.7944 1.16108C90.5481 0.0092393 93.4066 -0.120633 95.8195 0.569887Z" fill="#191847"/>
<path fill-rule="evenodd" clip-rule="evenodd" d="M64.5696 111.118C65.8362 128.405 147.431 179.299 147.907 180.727C148.118 181.362 139.652 201.423 122.509 240.913L129.642 243.684C155.936 201.862 168.408 178.723 167.058 174.267C165.124 167.887 144.022 146.899 103.75 111.302L64.5696 111.118Z" fill="#B28B67"/>
<path fill-rule="evenodd" clip-rule="evenodd" d="M64.5696 111.118C65.8362 128.405 147.431 179.299 147.907 180.727C148.118 181.362 139.652 201.423 122.509 240.913L129.642 243.684C155.936 201.862 168.408 178.723 167.058 174.267C165.124 167.887 144.022 146.899 103.75 111.302L64.5696 111.118Z" fill="black" fill-opacity="0.1"/>
<path fill-rule="evenodd" clip-rule="evenodd" d="M124.386 231.994L136.031 236.233C160.587 208.528 170.212 185.668 168.457 174.02C167.287 166.256 146.257 145.302 105.367 111.16L63.7345 111.16C65.1551 151.194 140.783 180.879 141.794 182.585C142.806 184.291 132.851 200.999 124.386 231.994Z" fill="#2F3676"/>
<path fill-rule="evenodd" clip-rule="evenodd" d="M119.885 239.551C118.429 241.254 117.523 242.594 117.167 243.573C116.734 244.763 116.3 246.573 115.865 249C117.246 249.503 129.656 254.02 153.094 262.551C155.226 259.705 155.296 257.775 153.304 256.761C151.313 255.747 149.665 254.887 148.361 254.179L133.865 240.167C133.586 239.898 133.141 239.905 132.872 240.184C132.867 240.189 132.863 240.194 132.858 240.199L130.764 242.492C128.507 242.69 126.775 242.569 125.568 242.13C124.588 241.773 123.379 240.885 121.94 239.465L121.94 239.465C121.388 238.92 120.498 238.925 119.953 239.478C119.929 239.501 119.907 239.526 119.885 239.551Z" fill="#E4E4E4"/>
<path fill-rule="evenodd" clip-rule="evenodd" d="M73.9513 111.118L37.6032 198.379L1.87866 272.151H10.3072L102.522 111.118H73.9513Z" fill="#B28B67"/>
<path fill-rule="evenodd" clip-rule="evenodd" d="M1.37458 268.745C0.588726 270.843 0.195801 272.413 0.195801 273.454C0.195801 274.721 0.406822 276.569 0.828864 278.999C2.29831 278.999 15.5045 278.999 40.4474 278.999C41.4769 275.596 40.8826 273.758 38.6644 273.487C36.4463 273.215 34.6036 272.97 33.1364 272.752L14.7221 264.542C14.3678 264.385 13.9525 264.544 13.7945 264.898C13.7918 264.904 13.7892 264.91 13.7867 264.916L12.603 267.788C10.5496 268.746 8.88095 269.225 7.59712 269.225C6.55404 269.225 5.11353 268.803 3.2756 267.961L3.27561 267.961C2.57029 267.638 1.73642 267.947 1.41309 268.653C1.39915 268.683 1.38631 268.714 1.37458 268.745Z" fill="#E4E4E4"/>
<path fill-rule="evenodd" clip-rule="evenodd" d="M5.10474 256.826L23.8331 260.338C38.3138 239.049 98.9163 151.755 105.561 111.118H63.8672C41.6779 140.495 18.9079 235.184 5.10474 256.826Z" fill="#5C63AB"/>
<path fill-rule="evenodd" clip-rule="evenodd" d="M130.221 85.9491L152.627 102.403C158.704 104.042 163.782 106.083 167.859 108.523C168.822 109.401 169.986 111.178 165.992 110.871C161.997 110.564 157.782 110.42 157.231 111.783C156.68 113.145 159.097 114.774 157.983 116.613C157.24 117.838 153.731 114.765 147.456 107.394L125.268 98.1931L130.221 85.9491ZM174.005 25.4378C171.356 28.443 168.704 31.7232 169.461 32.9832C170.217 34.2433 172.973 33.2934 173.77 35.2895C174.302 36.6202 169.736 37.5732 160.073 38.1487L139.371 50.3318L132.574 39.0073L159.199 31.0147C164.165 27.1482 168.85 24.3212 173.253 22.5337C174.534 22.2927 176.654 22.4327 174.005 25.4378Z" fill="#B28B67"/>
<path fill-rule="evenodd" clip-rule="evenodd" d="M95.4181 41.6387C107.62 64.3902 125.264 81.8309 150.844 99.9611L141.158 110.882C112.598 100.268 97.5242 93.8643 90.1219 72.3687C88.2641 66.9738 86.9657 49.7757 85.8518 40.727L95.4181 41.6387Z" fill="#2026A2"/>
<path fill-rule="evenodd" clip-rule="evenodd" d="M61.3075 117.441H115.395C103.143 80.075 96.8845 54.4295 96.619 40.5043C96.6054 39.7943 95.2943 38.5433 94.7142 38.7072C90.4722 39.9052 85.9329 39.4573 81.0963 37.3633C68.2739 57.9856 63.8396 83.3759 61.3075 117.441Z" fill="#F2F2F2"/>
<path fill-rule="evenodd" clip-rule="evenodd" d="M155.379 31.041L158.243 45.352C136.318 59.4535 114.116 70.377 94.6624 68.8254C103.111 105.061 102.722 134.724 84.0716 134.724H55.2322C50.6519 103.942 62.69 61.2622 73.8501 39.7347C74.2763 38.9127 75.1837 37.3629 77.3209 37.3629H85.7007C85.7045 37.3742 85.7082 37.3854 85.7119 37.3966C101.216 37.5232 126.37 40.3543 155.379 31.041Z" fill="#1F28CF"/>
</svg>
