<svg width="163" height="280" viewBox="0 0 163 280" fill="none" xmlns="http://www.w3.org/2000/svg">
<path fill-rule="evenodd" clip-rule="evenodd" d="M62.4653 16.9856C58.5154 24.3479 58.9848 43.0229 64.0896 44.3387C66.1254 44.8635 70.4621 43.5781 74.8759 40.9178L72.1057 60.5181H88.4646L82.8333 34.2684C85.9739 30.5818 88.0995 26.0639 87.7443 21.0014C86.7208 6.41442 66.4152 9.62338 62.4653 16.9856Z" fill="#EAC7A8"/>
<path fill-rule="evenodd" clip-rule="evenodd" d="M89.8278 0.535645C84.1811 0.535645 79.6035 5.11322 79.6035 10.76L79.6053 10.6147C71.3872 7.76725 60.7219 11.0942 62.1491 17.7675C63.0656 22.0526 68.0286 24.1929 72.9112 26.4835C73.6292 25.2355 74.9998 24.3924 76.5726 24.3924C78.8902 24.3924 80.769 26.2234 80.769 28.4821C80.769 29.2956 80.5253 30.0537 80.1051 30.6907C81.7474 32.1195 82.9063 33.8392 83.1866 36.0697C85.8339 36.0697 90.1127 28.2969 88.6999 20.9225C89.0703 20.9634 89.4466 20.9843 89.8278 20.9843C95.4745 20.9843 100.052 16.4067 100.052 10.76C100.052 5.11322 95.4745 0.535645 89.8278 0.535645Z" fill="#191847"/>
<path fill-rule="evenodd" clip-rule="evenodd" d="M93.9175 117.093L68.9491 203.132L57.2053 267.731H45.418L57.1843 117.093H93.9175Z" fill="#EAC7A8"/>
<path fill-rule="evenodd" clip-rule="evenodd" d="M93.9175 117.093L68.9491 203.132L57.2053 267.731H45.418L57.1843 117.093H93.9175Z" fill="black" fill-opacity="0.1"/>
<path fill-rule="evenodd" clip-rule="evenodd" d="M105.139 117.093C103.396 161.79 104.083 186.168 104.473 190.229C104.863 194.29 107.077 221.487 122.161 269.094H109.902C89.9247 223.423 82.951 196.226 80.6598 190.229C78.3686 184.232 71.6017 159.853 61.7223 117.093H105.139Z" fill="#EAC7A8"/>
<path fill-rule="evenodd" clip-rule="evenodd" d="M94.4535 117.093C87.9588 146.699 76.7259 193.958 60.7546 258.87H43.5143C42.2409 192.244 47.6579 148.393 57.0387 117.093H94.4535Z" fill="#191847"/>
<path fill-rule="evenodd" clip-rule="evenodd" d="M105.226 117.093C103.519 161.79 107.941 205.824 121.639 259.566H103.244C83.2307 214.577 68.8863 170.759 59.0829 117.093H105.226Z" fill="#2F3676"/>
<path fill-rule="evenodd" clip-rule="evenodd" d="M123.909 277.956L123.232 267.05C119.272 268.208 114.311 267.754 108.35 265.687C101.941 270.227 93.8726 273.327 84.1449 274.987C83.4028 275.113 82.9038 275.818 83.0304 276.56C83.0387 276.608 83.0494 276.655 83.0627 276.702L83.9979 280.001H108.35H122.556L123.909 277.956Z" fill="#E4E4E4"/>
<path fill-rule="evenodd" clip-rule="evenodd" d="M59.8364 277.956L59.16 267.05C55.1994 268.208 50.2387 267.754 44.2779 265.687C37.8686 270.227 29.8002 273.327 20.0725 274.987C19.3304 275.113 18.8314 275.818 18.9581 276.56C18.9663 276.608 18.977 276.655 18.9903 276.702L19.9255 280.001H44.2779H58.4835L59.8364 277.956Z" fill="#E4E4E4"/>
<path fill-rule="evenodd" clip-rule="evenodd" d="M129.589 98.373L117.516 100.126C130.475 128.243 137.422 143.112 138.358 144.735C140.464 148.386 137.988 154.746 137.019 158.113C141.912 159.526 140.35 151.966 146.537 153.851C152.184 155.572 156.844 159.474 162.436 154.835C163.124 154.264 163.703 152.399 161.518 151.312C156.073 148.605 148.078 143.651 146.836 141.825C145.141 139.335 139.392 124.851 129.589 98.373ZM36.4168 105.921L15.8409 123.365C10.0693 125.364 5.2926 127.682 1.51093 130.321C0.638016 131.236 -0.368484 133.035 3.47729 132.467C7.32306 131.9 11.3938 131.475 12.0195 132.757C12.6452 134.038 10.4157 135.779 11.6186 137.483C12.4205 138.619 15.6092 135.407 21.1847 127.847L42.0402 117.438L36.4168 105.921Z" fill="#EAC7A8"/>
<path fill-rule="evenodd" clip-rule="evenodd" d="M79.1298 49.1573L71.649 46.6835C61.5014 72.0331 46.3673 96.5601 21.0815 117.277L27.3344 128.065C49.557 114.974 70.5935 104.805 79.1298 85.1623C81.9948 78.5696 79.3635 57.0402 79.1298 49.1573Z" fill="#C5CFD6"/>
<path fill-rule="evenodd" clip-rule="evenodd" d="M104.823 120.501C83.3945 122.773 66.5275 122.773 54.2225 120.501C52.698 120.22 52.4575 117.667 53.1645 115.935C64.1741 88.9589 71.7238 65.4207 71.7238 46.6836C73.7439 47.702 77.2793 47.8547 82.33 47.1415C95.9037 66.4506 102.143 88.6056 104.823 120.501Z" fill="#323337"/>
<path fill-rule="evenodd" clip-rule="evenodd" d="M85.6844 45.1694L85.7042 45.5225L80.0475 45.523C78.7436 53.192 74.6589 156.081 62.1335 191.434L61.7514 192.484H131.144C129.64 161.049 117.772 123.288 105.751 91.6885C116.381 101.416 125.646 117.898 133.546 141.136L146.544 137.799C136.879 96.1553 117.01 65.5466 86.9351 45.9733L86.7389 45.523L86.2358 45.5225L85.6844 45.1694Z" fill="#DDE3E9"/>
</svg>
