<svg width="80" height="80" viewBox="0 0 80 80" fill="none" xmlns="http://www.w3.org/2000/svg">
<rect width="80" height="80" rx="40" fill="#855FFB"/>
<path d="M48.1661 49.8L40.5341 42.168L32.9021 49.8L30.0221 46.92L37.6541 39.288L30.1661 31.8L32.9501 28.968L40.4861 36.504L48.0221 28.968L50.9021 31.848L43.3661 39.384L50.9501 47.016L48.1661 49.8Z" fill="white"/>
</svg>
