<svg width="80" height="80" viewBox="0 0 80 80" fill="none" xmlns="http://www.w3.org/2000/svg">
<g opacity="0.48">
<rect x="1" y="1" width="78" height="78" rx="7" stroke="white" stroke-width="2" stroke-dasharray="2 2"/>
</g>
</svg>
