<svg width="188" height="320" viewBox="0 0 188 320" fill="none" xmlns="http://www.w3.org/2000/svg">
<g clip-path="url(#clip0)">
<path fill-rule="evenodd" clip-rule="evenodd" d="M116.182 19.4123C120.696 27.8263 120.16 49.1692 114.326 50.673C111.999 51.2727 107.043 49.8037 101.999 46.7633L105.165 69.1636H86.4688L92.9045 39.164C89.3152 34.9507 86.886 29.7874 87.292 24.0017C88.4617 7.33089 111.668 10.9983 116.182 19.4123Z" fill="#EAC7A8"/>
<path fill-rule="evenodd" clip-rule="evenodd" d="M84.9105 0.612061C91.3639 0.612061 96.5954 5.84358 96.5954 12.297L96.5934 12.131C105.985 8.87675 118.174 12.679 116.543 20.3056C115.496 25.2029 109.824 27.6489 104.244 30.2667C103.423 28.8405 101.857 27.8769 100.059 27.8769C97.4106 27.8769 95.2634 29.9695 95.2634 32.5509C95.2634 33.4806 95.542 34.347 96.0222 35.075C94.1453 36.7078 92.8208 38.6733 92.5005 41.2225C89.475 41.2225 84.585 32.3392 86.1995 23.9113C85.7763 23.9581 85.3462 23.9819 84.9105 23.9819C78.4571 23.9819 73.2256 18.7504 73.2256 12.297C73.2256 5.84358 78.4571 0.612061 84.9105 0.612061Z" fill="#191847"/>
<path fill-rule="evenodd" clip-rule="evenodd" d="M71.3905 133.82C72.7951 152.991 163.283 209.432 163.811 211.016C164.045 211.72 154.657 233.968 135.645 277.761L143.555 280.835C172.716 234.455 186.547 208.794 185.049 203.852C182.905 196.776 159.502 173.5 114.841 134.024L71.3905 133.82Z" fill="#EAC7A8"/>
<path fill-rule="evenodd" clip-rule="evenodd" d="M71.3905 133.82C72.7951 152.991 163.283 209.432 163.811 211.016C164.045 211.72 154.657 233.968 135.645 277.761L143.555 280.835C172.716 234.455 186.547 208.794 185.049 203.852C182.905 196.776 159.502 173.5 114.841 134.024L71.3905 133.82Z" fill="black" fill-opacity="0.1"/>
<path fill-rule="evenodd" clip-rule="evenodd" d="M137.727 267.871L150.641 272.572C177.873 241.847 188.547 216.495 186.601 203.579C185.303 194.967 161.981 171.73 116.635 133.867L70.4644 133.867C72.0398 178.264 155.911 211.185 157.032 213.077C158.154 214.969 147.114 233.498 137.727 267.871Z" fill="#2F3676"/>
<path fill-rule="evenodd" clip-rule="evenodd" d="M132.734 276.251C131.12 278.139 130.115 279.626 129.72 280.712C129.239 282.032 128.758 284.038 128.276 286.73C129.807 287.288 143.57 292.297 169.563 301.758C171.927 298.601 172.005 296.461 169.796 295.337C167.587 294.213 165.76 293.258 164.314 292.474L148.238 276.934C147.929 276.635 147.435 276.644 147.136 276.953C147.131 276.958 147.126 276.964 147.121 276.969L144.799 279.512C142.295 279.732 140.375 279.598 139.037 279.111C137.95 278.716 136.609 277.73 135.013 276.155L135.013 276.155C134.4 275.551 133.414 275.557 132.809 276.169C132.783 276.196 132.758 276.223 132.734 276.251Z" fill="#E4E4E4"/>
<path fill-rule="evenodd" clip-rule="evenodd" d="M81.7944 133.82L41.4845 230.592L1.86621 312.405H11.2135L113.479 133.82H81.7944Z" fill="#EAC7A8"/>
<path fill-rule="evenodd" clip-rule="evenodd" d="M1.30726 308.628C0.435752 310.955 0 312.695 0 313.85C0 315.255 0.234021 317.305 0.702063 320C2.33167 320 16.9772 320 44.6388 320C45.7806 316.225 45.1215 314.188 42.6615 313.887C40.2016 313.586 38.1581 313.314 36.531 313.071L16.1096 303.967C15.7167 303.792 15.2561 303.969 15.0809 304.362C15.0779 304.368 15.075 304.375 15.0722 304.382L13.7596 307.566C11.4823 308.629 9.63178 309.16 8.20802 309.16C7.05125 309.16 5.45374 308.693 3.41549 307.758L3.41549 307.758C2.6333 307.4 1.70853 307.743 1.34997 308.525C1.33451 308.559 1.32027 308.593 1.30726 308.628Z" fill="#E4E4E4"/>
<path fill-rule="evenodd" clip-rule="evenodd" d="M5.44434 295.409L26.214 299.304C42.2731 275.695 109.481 178.886 116.85 133.82H70.6116C46.0037 166.399 20.7519 271.409 5.44434 295.409Z" fill="#5C63AB"/>
<path fill-rule="evenodd" clip-rule="evenodd" d="M39.4698 112.426L53.2672 114.43C38.4569 146.563 30.517 163.557 29.4473 165.411C27.0406 169.584 29.8711 176.852 30.9776 180.7C25.3856 182.314 27.1715 173.675 20.1009 175.83C13.6471 177.797 8.32136 182.255 1.92951 176.953C1.14367 176.302 0.481691 174.17 2.97946 172.928C9.2023 169.834 18.3389 164.172 19.7591 162.085C21.6959 159.239 28.2661 142.686 39.4698 112.426ZM145.952 121.053L169.467 140.988C176.063 143.273 181.522 145.922 185.844 148.938C186.842 149.983 187.992 152.04 183.597 151.391C179.202 150.742 174.55 150.257 173.835 151.722C173.119 153.186 175.667 155.176 174.293 157.123C173.376 158.422 169.732 154.751 163.36 146.11L139.525 134.215L145.952 121.053Z" fill="#EAC7A8"/>
<path fill-rule="evenodd" clip-rule="evenodd" d="M97.1368 56.1794L105.686 53.3521C117.284 82.3231 134.58 110.354 163.478 134.031L156.332 146.36C130.934 131.399 106.893 119.777 97.1368 97.328C93.8626 89.7935 96.8697 65.1884 97.1368 56.1794Z" fill="#C5CFD6"/>
<path fill-rule="evenodd" clip-rule="evenodd" d="M67.7725 137.715C92.2628 140.312 111.539 140.312 125.602 137.715C127.344 137.393 127.619 134.476 126.811 132.497C114.229 101.667 105.601 74.7659 105.601 53.3521C103.292 54.516 99.2515 54.6905 93.4793 53.8754C77.9665 75.943 70.8359 101.263 67.7725 137.715Z" fill="#323337"/>
<path fill-rule="evenodd" clip-rule="evenodd" d="M89.6461 51.6217L89.6235 52.0252L96.0882 52.0258C97.5785 60.7904 102.247 178.378 116.561 218.781L116.998 219.982H37.6924C39.4117 184.056 52.9742 140.9 66.7132 104.786C54.5646 115.903 43.976 134.74 34.9476 161.297L20.0928 157.484C31.1376 109.891 53.8456 74.91 88.2168 52.5404L88.441 52.0258L89.0159 52.0252L89.6461 51.6217Z" fill="#DDE3E9"/>
</g>
<defs>
<clipPath id="clip0">
<rect width="187.624" height="320" fill="white"/>
</clipPath>
</defs>
</svg>
