<svg width="489" height="337" viewBox="0 0 489 337" fill="none" xmlns="http://www.w3.org/2000/svg">
<path fill-rule="evenodd" clip-rule="evenodd" d="M354.4 61.2903C363.543 61.2903 366.869 50.4983 372.063 44.5759C375.78 40.3385 382.123 41.602 384 35.6698C388.721 20.7528 376.085 10.2539 359.6 10.2539C343.115 10.2539 332 19.4618 329.6 33.3036C327.2 47.1455 337.915 61.2903 354.4 61.2903Z" fill="#191847"/>
<path fill-rule="evenodd" clip-rule="evenodd" d="M364.748 59.3481C369.929 62.4266 375.019 63.9141 377.408 63.3069C383.4 61.7842 383.951 40.1746 379.315 31.6554C374.679 23.1362 350.847 19.423 349.645 36.3022C349.229 42.1605 351.724 47.3886 355.41 51.6546L348.8 82.0286H368L364.748 59.3481Z" fill="#B28B67"/>
<path fill-rule="evenodd" clip-rule="evenodd" d="M350.893 24.4508C336.187 38.648 350.95 53.7378 354.995 53.7378C355.256 51.6894 356.052 49.6969 357.219 47.8004C356.599 47.0089 356.232 46.0246 356.232 44.9579C356.232 42.3443 358.437 40.2255 361.157 40.2255C362.007 40.2255 362.806 40.4322 363.504 40.796C369.4 35.8385 376.795 32.3824 380.467 31.7028C386.853 30.5209 365.6 10.2536 350.893 24.4508Z" fill="#191847"/>
<path fill-rule="evenodd" clip-rule="evenodd" d="M344 147.493L403.445 245.475L448.012 328.31H457.611L382.939 147.493L344 147.493Z" fill="#997659"/>
<path fill-rule="evenodd" clip-rule="evenodd" d="M444.743 323.769C443.671 323.319 442.408 323.79 442.017 324.885C441.458 326.446 440.8 328.546 440.8 329.774C440.8 331.908 441.521 336.001 441.521 336.001C444.031 336.001 486.642 336.001 486.642 336.001C486.642 336.001 488.401 330.268 484.612 329.811C480.822 329.354 478.316 328.986 478.316 328.986L457.525 319.847C457.012 319.622 456.415 319.861 456.2 320.377L454.931 323.412C454.931 323.412 451.423 325.025 449.229 325.025C448.009 325.025 446.151 324.359 444.743 323.769Z" fill="#E4E4E4"/>
<path fill-rule="evenodd" clip-rule="evenodd" d="M435.634 315.046L454.146 309.525C454.146 309.525 441.981 273.667 424.324 230.605C406.668 187.543 386.4 147.493 386.4 147.493H334.115C334.115 147.493 356.649 198.155 381.893 239.558C407.137 280.962 435.634 315.046 435.634 315.046Z" fill="#DB2721"/>
<path fill-rule="evenodd" clip-rule="evenodd" d="M340.093 147.493C334.483 181.925 323.662 225.915 322.64 227.272C321.96 228.177 297.45 236.275 249.112 251.564L251.185 259.91C308.829 251.71 339.202 245.348 342.305 240.824C346.959 234.039 370.199 180.433 379.2 147.493H340.093Z" fill="#B28B67"/>
<path fill-rule="evenodd" clip-rule="evenodd" d="M266.104 244.35L269.756 257.791C312.87 261.519 339.286 258.825 349.006 249.71C358.726 240.594 369.804 206.522 382.239 147.493H332.382C324.504 195.83 320.099 221.013 319.168 223.042C318.237 225.071 300.549 232.174 266.104 244.35Z" fill="#FF4133"/>
<path fill-rule="evenodd" clip-rule="evenodd" d="M252.633 250.55C252.9 249.404 252.202 248.221 251.037 248.031C249.383 247.761 247.186 247.49 245.965 247.702C243.833 248.073 239.87 249.483 239.87 249.483C240.306 251.921 247.705 293.294 247.705 293.294C247.705 293.294 253.737 294.006 253.536 290.247C253.334 286.488 253.267 283.991 253.267 283.991L258.777 262.246C258.916 261.697 258.57 261.14 258.015 261.02L254.774 260.317C254.774 260.317 252.553 257.191 252.172 255.062C251.963 253.893 252.293 252.011 252.633 250.55Z" fill="#E4E4E4"/>
<path fill-rule="evenodd" clip-rule="evenodd" d="M435.498 156.766L412.836 134.97L405.309 147.81L428.874 161.508C434.783 170.685 438.254 174.651 439.286 173.404C440.156 172.353 439.757 171.201 439.39 170.14C439.103 169.313 438.836 168.542 439.203 167.916C440.041 166.487 444.772 167.305 449.228 168.271C453.684 169.237 452.653 167.079 451.706 165.952C447.495 162.601 442.092 159.539 435.498 156.766ZM301.918 188.434C304.263 183.745 312.246 138.044 312.246 138.044L328.964 138.108C328.964 138.108 313.48 187.389 312.246 190.404C310.643 194.321 313.366 200.012 315.213 203.871C315.499 204.468 315.763 205.022 315.988 205.518C313.425 206.648 312.195 205.282 310.897 203.841C309.432 202.214 307.881 200.493 304.23 202.167C302.82 202.814 301.485 203.579 300.181 204.326C295.677 206.907 291.54 209.279 285.911 205.855C285.019 205.312 284.041 203.268 286.404 201.671C292.29 197.691 300.772 190.727 301.918 188.434Z" fill="#B28B67"/>
<path fill-rule="evenodd" clip-rule="evenodd" d="M359.756 68.881L366.674 67.7112C378.584 97.0444 399.377 123.697 429.055 147.67L406.629 174.531C376.955 140.397 358.664 105.181 359.756 68.881Z" fill="#191847"/>
<path fill-rule="evenodd" clip-rule="evenodd" d="M329.6 154.591H391.2C391.2 154.591 369.793 103.275 369.793 67.4054L351.211 64.6758C336.608 87.8317 332.484 116.341 329.6 154.591Z" fill="#DDE3E9"/>
<path fill-rule="evenodd" clip-rule="evenodd" d="M301.6 180.619C308.337 105.687 350.803 64.6758 350.803 64.6758L350.818 64.6887C350.82 64.6844 350.823 64.6801 350.825 64.6758H352.038C354.215 64.7497 358.67 64.9421 358.67 64.9421L363.16 77.5928C363.873 100.729 371.481 170.844 371.481 170.844H331.16C331.229 174.059 331.38 177.319 331.625 180.619H301.6Z" fill="#2F3676"/>
<path fill-rule="evenodd" clip-rule="evenodd" d="M331.167 171.155C330.845 157.155 332.105 144.01 334.206 132.114C335.305 146.23 337.602 163.215 342.4 171.155H331.167Z" fill="black" fill-opacity="0.1"/>
<path fill-rule="evenodd" clip-rule="evenodd" d="M340.089 146.704L360 137.578V146.704H340.089Z" fill="white" fill-opacity="0.2"/>
<path fill-rule="evenodd" clip-rule="evenodd" d="M77.1133 182H149.216L158.664 294.41H51.3325L77.1133 182Z" fill="#C5CFD6"/>
<path fill-rule="evenodd" clip-rule="evenodd" d="M77.1133 182H99.2891L112.562 294.41H51.3325L77.1133 182Z" fill="black" fill-opacity="0.1"/>
</svg>
