<svg width="280" height="320" viewBox="0 0 280 320" fill="none" xmlns="http://www.w3.org/2000/svg">
<g clip-path="url(#clip0)">
<path fill-rule="evenodd" clip-rule="evenodd" d="M145.54 68.2097C151.584 71.748 157.522 73.4575 160.31 72.7597C167.3 71.0097 167.942 46.173 162.534 36.3816C157.125 26.5902 129.321 22.3225 127.92 41.7224C127.433 48.4555 130.344 54.4643 134.645 59.3674L126.933 94.2772H149.333L145.54 68.2097Z" fill="#B28B67"/>
<path fill-rule="evenodd" clip-rule="evenodd" d="M132.924 63.7353C130.112 51.5871 122.103 43.306 123.326 37.8762C124.55 32.4465 129.847 31.1231 129.847 31.1231C129.847 31.1231 132.586 20.3582 147.519 21.9657C162.451 23.5731 171.565 29.5962 167.629 42.8495C164.011 42.8495 159.644 41.5787 153.604 43.756C150.73 44.7923 149.492 50.1833 149.492 50.1833H146.763C146.763 50.1833 142.79 43.7857 138.928 45.4814C135.066 47.1772 137.172 53.7193 137.172 53.7193L135.827 63.7353H132.924Z" fill="#191847"/>
<path fill-rule="evenodd" clip-rule="evenodd" d="M86.4476 207.592H158.552L168 320H60.6665L86.4476 207.592Z" fill="#C5CFD6"/>
<path fill-rule="evenodd" clip-rule="evenodd" d="M86.4476 207.592H108.624L121.897 320H60.6665L86.4476 207.592Z" fill="black" fill-opacity="0.1"/>
<path fill-rule="evenodd" clip-rule="evenodd" d="M198.168 229.863C190.066 246.553 177.405 287.069 177.405 287.069L188.154 291.839C188.154 291.839 215.426 249.25 232.094 220.136C231.317 226.69 230.527 234.069 229.794 241.825C228.057 260.2 229.793 299.9 230.727 311.368C231.314 318.575 241.397 317.065 242.338 311.349C242.498 310.381 243.147 306.982 244.117 301.911C248.87 277.043 261.311 211.96 261.333 196.024C261.342 189.612 248.444 183.851 240.756 188.335C235.476 182.862 225.482 179.708 219.74 188.748C216.09 194.495 207.418 210.811 198.168 229.863Z" fill="#B28B67"/>
<path fill-rule="evenodd" clip-rule="evenodd" d="M178.173 272.068L215.066 187.184C223.904 173.375 248.683 189.994 245.669 198.003C238.827 216.185 204.027 275.05 201.988 280.467L178.173 272.068Z" fill="#1F28CF"/>
<path fill-rule="evenodd" clip-rule="evenodd" d="M178.971 282.206C178.274 281.29 176.932 281.077 176.027 281.821C174.509 283.068 172.41 284.921 171.639 286.218C170.377 288.341 168.684 292.824 168.684 292.824C171.22 294.246 214.273 318.388 214.273 318.388C214.273 318.388 219.442 313.679 215.884 311.077C212.325 308.475 210.011 306.688 210.011 306.688L194.315 285.684C193.983 285.24 193.341 285.153 192.889 285.491L189.681 287.89C189.681 287.89 185.182 287.509 182.966 286.266C181.652 285.53 180.054 283.63 178.971 282.206Z" fill="#E4E4E4"/>
<path fill-rule="evenodd" clip-rule="evenodd" d="M231.053 305.796C229.991 305.345 228.741 305.812 228.34 306.894C227.667 308.712 226.8 311.343 226.8 312.843C226.8 315.295 227.641 320 227.641 320C230.57 320 280.283 320 280.283 320C280.283 320 282.335 313.411 277.914 312.886C273.493 312.36 270.569 311.937 270.569 311.937L246.149 301.363C245.639 301.143 245.048 301.379 244.831 301.89L243.286 305.531C243.286 305.531 239.193 307.385 236.634 307.385C235.107 307.385 232.726 306.505 231.053 305.796Z" fill="#E4E4E4"/>
<path fill-rule="evenodd" clip-rule="evenodd" d="M263.919 202.546C263.919 226.629 252.143 282.806 252.136 288.109L226.8 288.128C226.8 288.128 232.363 212.939 230.745 212.129C229.127 211.319 164.431 218.402 145.027 218.402C117.047 218.402 105.473 201.265 104.533 169.519H159.961C171.246 170.691 230.112 182.224 251.974 186.188C261.333 187.885 263.919 195.911 263.919 202.546Z" fill="#2B44FF"/>
<path fill-rule="evenodd" clip-rule="evenodd" d="M234.603 66.1409L199.226 76.4556L208.258 91.0703L235.764 75.3476C248.604 74.6049 254.671 73.375 253.965 71.6576C253.369 70.2096 251.951 69.9629 250.645 69.7357C249.628 69.5587 248.678 69.3934 248.238 68.6814C247.233 67.0552 250.756 62.822 254.276 58.9437C257.796 55.0655 254.979 54.8848 253.278 55.1959C247.427 57.5027 241.202 61.1511 234.603 66.1409ZM225.872 158.269L196.1 137.036L189.519 152.837L219 164.711C227.338 174.224 232.001 178.19 232.988 176.608C233.82 175.275 233.169 174.026 232.57 172.877C232.103 171.981 231.668 171.145 231.989 170.375C232.721 168.617 238.322 168.802 243.629 169.198C248.936 169.595 247.39 167.301 246.11 166.168C240.692 163.019 233.946 160.386 225.872 158.269Z" fill="#B28B67"/>
<path fill-rule="evenodd" clip-rule="evenodd" d="M149.857 79.8518C166.07 109.213 189.514 131.721 223.502 155.119L210.632 169.212C172.684 155.515 152.655 147.251 142.82 119.51C140.351 112.548 138.626 90.3529 137.146 78.6752L149.857 79.8518Z" fill="#2026A2"/>
<path fill-rule="evenodd" clip-rule="evenodd" d="M104.533 177.677H176.4C176.4 177.677 151.982 105.344 151.452 78.3875C151.434 77.4713 149.692 75.8569 148.921 76.0683C140.467 78.3875 130.827 74.334 130.827 74.334C113.79 100.948 107.898 133.715 104.533 177.677Z" fill="#F2F2F2"/>
<path fill-rule="evenodd" clip-rule="evenodd" d="M148.854 114.938C160.078 161.702 159.561 199.983 134.78 199.983H96.4612C90.3752 160.258 106.37 105.177 121.199 77.3953C121.765 76.3344 122.971 74.3344 125.811 74.3344H136.945C136.95 74.3487 136.955 74.3631 136.96 74.3774C140.31 74.404 144 74.523 147.996 74.6519C168.568 75.3152 197.252 76.24 229.528 66.1758L233.334 84.6447C204.201 102.843 174.702 116.94 148.854 114.938Z" fill="#1F28CF"/>
</g>
<defs>
<clipPath id="clip0">
<rect width="280" height="320" fill="white"/>
</clipPath>
</defs>
</svg>
